%YAML 1.1
%TAG !u! tag:unity3d.com,2011:
--- !u!1 &1201088610546240
GameObject:
  m_ObjectHideFlags: 0
  m_CorrespondingSourceObject: {fileID: 0}
  m_PrefabInstance: {fileID: 0}
  m_PrefabAsset: {fileID: 0}
  serializedVersion: 6
  m_Component:
  - component: {fileID: 4099364924053152}
  - component: {fileID: 8195094279687486824}
  - component: {fileID: 3664157344600022270}
  m_Layer: 0
  m_Name: Layer1
  m_TagString: Untagged
  m_Icon: {fileID: 0}
  m_NavMeshLayer: 0
  m_StaticEditorFlags: 0
  m_IsActive: 1
--- !u!4 &4099364924053152
Transform:
  m_ObjectHideFlags: 0
  m_CorrespondingSourceObject: {fileID: 0}
  m_PrefabInstance: {fileID: 0}
  m_PrefabAsset: {fileID: 0}
  m_GameObject: {fileID: 1201088610546240}
  m_LocalRotation: {x: -0, y: -0, z: -0, w: 1}
  m_LocalPosition: {x: 0, y: 0, z: 0}
  m_LocalScale: {x: 1, y: 1, z: 1}
  m_Children: []
  m_Father: {fileID: 4498376204177096}
  m_RootOrder: 0
  m_LocalEulerAnglesHint: {x: 0, y: 0, z: 0}
--- !u!1839735485 &8195094279687486824
Tilemap:
  m_ObjectHideFlags: 0
  m_CorrespondingSourceObject: {fileID: 0}
  m_PrefabInstance: {fileID: 0}
  m_PrefabAsset: {fileID: 0}
  m_GameObject: {fileID: 1201088610546240}
  m_Enabled: 1
  m_Tiles:
  - first: {x: 9, y: -15, z: 0}
    second:
      serializedVersion: 2
      m_TileIndex: 144
      m_TileSpriteIndex: 31
      m_TileMatrixIndex: 0
      m_TileColorIndex: 0
      m_TileObjectToInstantiateIndex: 65535
      dummyAlignment: 0
      m_AllTileFlags: 1073741826
  - first: {x: 8, y: -13, z: 0}
    second:
      serializedVersion: 2
      m_TileIndex: 122
      m_TileSpriteIndex: 122
      m_TileMatrixIndex: 0
      m_TileColorIndex: 0
      m_TileObjectToInstantiateIndex: 65535
      dummyAlignment: 0
      m_AllTileFlags: 1073741825
  - first: {x: 9, y: -13, z: 0}
    second:
      serializedVersion: 2
      m_TileIndex: 123
      m_TileSpriteIndex: 123
      m_TileMatrixIndex: 0
      m_TileColorIndex: 0
      m_TileObjectToInstantiateIndex: 65535
      dummyAlignment: 0
      m_AllTileFlags: 1073741825
  - first: {x: 10, y: -13, z: 0}
    second:
      serializedVersion: 2
      m_TileIndex: 124
      m_TileSpriteIndex: 124
      m_TileMatrixIndex: 0
      m_TileColorIndex: 0
      m_TileObjectToInstantiateIndex: 65535
      dummyAlignment: 0
      m_AllTileFlags: 1073741825
  - first: {x: 11, y: -13, z: 0}
    second:
      serializedVersion: 2
      m_TileIndex: 125
      m_TileSpriteIndex: 125
      m_TileMatrixIndex: 0
      m_TileColorIndex: 0
      m_TileObjectToInstantiateIndex: 65535
      dummyAlignment: 0
      m_AllTileFlags: 1073741825
  - first: {x: 12, y: -13, z: 0}
    second:
      serializedVersion: 2
      m_TileIndex: 126
      m_TileSpriteIndex: 126
      m_TileMatrixIndex: 0
      m_TileColorIndex: 0
      m_TileObjectToInstantiateIndex: 65535
      dummyAlignment: 0
      m_AllTileFlags: 1073741825
  - first: {x: 13, y: -13, z: 0}
    second:
      serializedVersion: 2
      m_TileIndex: 127
      m_TileSpriteIndex: 127
      m_TileMatrixIndex: 0
      m_TileColorIndex: 0
      m_TileObjectToInstantiateIndex: 65535
      dummyAlignment: 0
      m_AllTileFlags: 1073741825
  - first: {x: 16, y: -13, z: 0}
    second:
      serializedVersion: 2
      m_TileIndex: 128
      m_TileSpriteIndex: 128
      m_TileMatrixIndex: 0
      m_TileColorIndex: 0
      m_TileObjectToInstantiateIndex: 65535
      dummyAlignment: 0
      m_AllTileFlags: 1073741825
  - first: {x: 17, y: -13, z: 0}
    second:
      serializedVersion: 2
      m_TileIndex: 129
      m_TileSpriteIndex: 129
      m_TileMatrixIndex: 0
      m_TileColorIndex: 0
      m_TileObjectToInstantiateIndex: 65535
      dummyAlignment: 0
      m_AllTileFlags: 1073741825
  - first: {x: 18, y: -13, z: 0}
    second:
      serializedVersion: 2
      m_TileIndex: 130
      m_TileSpriteIndex: 130
      m_TileMatrixIndex: 0
      m_TileColorIndex: 0
      m_TileObjectToInstantiateIndex: 65535
      dummyAlignment: 0
      m_AllTileFlags: 1073741825
  - first: {x: 19, y: -13, z: 0}
    second:
      serializedVersion: 2
      m_TileIndex: 131
      m_TileSpriteIndex: 131
      m_TileMatrixIndex: 0
      m_TileColorIndex: 0
      m_TileObjectToInstantiateIndex: 65535
      dummyAlignment: 0
      m_AllTileFlags: 1073741825
  - first: {x: 20, y: -13, z: 0}
    second:
      serializedVersion: 2
      m_TileIndex: 132
      m_TileSpriteIndex: 132
      m_TileMatrixIndex: 0
      m_TileColorIndex: 0
      m_TileObjectToInstantiateIndex: 65535
      dummyAlignment: 0
      m_AllTileFlags: 1073741825
  - first: {x: 21, y: -13, z: 0}
    second:
      serializedVersion: 2
      m_TileIndex: 133
      m_TileSpriteIndex: 133
      m_TileMatrixIndex: 0
      m_TileColorIndex: 0
      m_TileObjectToInstantiateIndex: 65535
      dummyAlignment: 0
      m_AllTileFlags: 1073741825
  - first: {x: 23, y: -13, z: 0}
    second:
      serializedVersion: 2
      m_TileIndex: 134
      m_TileSpriteIndex: 134
      m_TileMatrixIndex: 0
      m_TileColorIndex: 0
      m_TileObjectToInstantiateIndex: 65535
      dummyAlignment: 0
      m_AllTileFlags: 1073741825
  - first: {x: 8, y: -12, z: 0}
    second:
      serializedVersion: 2
      m_TileIndex: 142
      m_TileSpriteIndex: 142
      m_TileMatrixIndex: 0
      m_TileColorIndex: 0
      m_TileObjectToInstantiateIndex: 65535
      dummyAlignment: 0
      m_AllTileFlags: 1073741825
  - first: {x: 9, y: -12, z: 0}
    second:
      serializedVersion: 2
      m_TileIndex: 108
      m_TileSpriteIndex: 108
      m_TileMatrixIndex: 0
      m_TileColorIndex: 0
      m_TileObjectToInstantiateIndex: 65535
      dummyAlignment: 0
      m_AllTileFlags: 1073741825
  - first: {x: 10, y: -12, z: 0}
    second:
      serializedVersion: 2
      m_TileIndex: 109
      m_TileSpriteIndex: 109
      m_TileMatrixIndex: 0
      m_TileColorIndex: 0
      m_TileObjectToInstantiateIndex: 65535
      dummyAlignment: 0
      m_AllTileFlags: 1073741825
  - first: {x: 11, y: -12, z: 0}
    second:
      serializedVersion: 2
      m_TileIndex: 110
      m_TileSpriteIndex: 110
      m_TileMatrixIndex: 0
      m_TileColorIndex: 0
      m_TileObjectToInstantiateIndex: 65535
      dummyAlignment: 0
      m_AllTileFlags: 1073741825
  - first: {x: 12, y: -12, z: 0}
    second:
      serializedVersion: 2
      m_TileIndex: 143
      m_TileSpriteIndex: 143
      m_TileMatrixIndex: 0
      m_TileColorIndex: 0
      m_TileObjectToInstantiateIndex: 65535
      dummyAlignment: 0
      m_AllTileFlags: 1073741825
  - first: {x: 13, y: -12, z: 0}
    second:
      serializedVersion: 2
      m_TileIndex: 111
      m_TileSpriteIndex: 111
      m_TileMatrixIndex: 0
      m_TileColorIndex: 0
      m_TileObjectToInstantiateIndex: 65535
      dummyAlignment: 0
      m_AllTileFlags: 1073741825
  - first: {x: 14, y: -12, z: 0}
    second:
      serializedVersion: 2
      m_TileIndex: 112
      m_TileSpriteIndex: 112
      m_TileMatrixIndex: 0
      m_TileColorIndex: 0
      m_TileObjectToInstantiateIndex: 65535
      dummyAlignment: 0
      m_AllTileFlags: 1073741825
  - first: {x: 15, y: -12, z: 0}
    second:
      serializedVersion: 2
      m_TileIndex: 113
      m_TileSpriteIndex: 113
      m_TileMatrixIndex: 0
      m_TileColorIndex: 0
      m_TileObjectToInstantiateIndex: 65535
      dummyAlignment: 0
      m_AllTileFlags: 1073741825
  - first: {x: 16, y: -12, z: 0}
    second:
      serializedVersion: 2
      m_TileIndex: 114
      m_TileSpriteIndex: 114
      m_TileMatrixIndex: 0
      m_TileColorIndex: 0
      m_TileObjectToInstantiateIndex: 65535
      dummyAlignment: 0
      m_AllTileFlags: 1073741825
  - first: {x: 17, y: -12, z: 0}
    second:
      serializedVersion: 2
      m_TileIndex: 115
      m_TileSpriteIndex: 115
      m_TileMatrixIndex: 0
      m_TileColorIndex: 0
      m_TileObjectToInstantiateIndex: 65535
      dummyAlignment: 0
      m_AllTileFlags: 1073741825
  - first: {x: 18, y: -12, z: 0}
    second:
      serializedVersion: 2
      m_TileIndex: 116
      m_TileSpriteIndex: 116
      m_TileMatrixIndex: 0
      m_TileColorIndex: 0
      m_TileObjectToInstantiateIndex: 65535
      dummyAlignment: 0
      m_AllTileFlags: 1073741825
  - first: {x: 19, y: -12, z: 0}
    second:
      serializedVersion: 2
      m_TileIndex: 117
      m_TileSpriteIndex: 117
      m_TileMatrixIndex: 0
      m_TileColorIndex: 0
      m_TileObjectToInstantiateIndex: 65535
      dummyAlignment: 0
      m_AllTileFlags: 1073741825
  - first: {x: 20, y: -12, z: 0}
    second:
      serializedVersion: 2
      m_TileIndex: 118
      m_TileSpriteIndex: 118
      m_TileMatrixIndex: 0
      m_TileColorIndex: 0
      m_TileObjectToInstantiateIndex: 65535
      dummyAlignment: 0
      m_AllTileFlags: 1073741825
  - first: {x: 21, y: -12, z: 0}
    second:
      serializedVersion: 2
      m_TileIndex: 119
      m_TileSpriteIndex: 119
      m_TileMatrixIndex: 0
      m_TileColorIndex: 0
      m_TileObjectToInstantiateIndex: 65535
      dummyAlignment: 0
      m_AllTileFlags: 1073741825
  - first: {x: 22, y: -12, z: 0}
    second:
      serializedVersion: 2
      m_TileIndex: 120
      m_TileSpriteIndex: 120
      m_TileMatrixIndex: 0
      m_TileColorIndex: 0
      m_TileObjectToInstantiateIndex: 65535
      dummyAlignment: 0
      m_AllTileFlags: 1073741825
  - first: {x: 23, y: -12, z: 0}
    second:
      serializedVersion: 2
      m_TileIndex: 121
      m_TileSpriteIndex: 121
      m_TileMatrixIndex: 0
      m_TileColorIndex: 0
      m_TileObjectToInstantiateIndex: 65535
      dummyAlignment: 0
      m_AllTileFlags: 1073741825
  - first: {x: 10, y: -11, z: 0}
    second:
      serializedVersion: 2
      m_TileIndex: 100
      m_TileSpriteIndex: 100
      m_TileMatrixIndex: 0
      m_TileColorIndex: 0
      m_TileObjectToInstantiateIndex: 65535
      dummyAlignment: 0
      m_AllTileFlags: 1073741825
  - first: {x: 11, y: -11, z: 0}
    second:
      serializedVersion: 2
      m_TileIndex: 101
      m_TileSpriteIndex: 101
      m_TileMatrixIndex: 0
      m_TileColorIndex: 0
      m_TileObjectToInstantiateIndex: 65535
      dummyAlignment: 0
      m_AllTileFlags: 1073741825
  - first: {x: 13, y: -11, z: 0}
    second:
      serializedVersion: 2
      m_TileIndex: 102
      m_TileSpriteIndex: 102
      m_TileMatrixIndex: 0
      m_TileColorIndex: 0
      m_TileObjectToInstantiateIndex: 65535
      dummyAlignment: 0
      m_AllTileFlags: 1073741825
  - first: {x: 14, y: -11, z: 0}
    second:
      serializedVersion: 2
      m_TileIndex: 103
      m_TileSpriteIndex: 103
      m_TileMatrixIndex: 0
      m_TileColorIndex: 0
      m_TileObjectToInstantiateIndex: 65535
      dummyAlignment: 0
      m_AllTileFlags: 1073741825
  - first: {x: 16, y: -11, z: 0}
    second:
      serializedVersion: 2
      m_TileIndex: 139
      m_TileSpriteIndex: 139
      m_TileMatrixIndex: 0
      m_TileColorIndex: 0
      m_TileObjectToInstantiateIndex: 65535
      dummyAlignment: 0
      m_AllTileFlags: 1073741825
  - first: {x: 17, y: -11, z: 0}
    second:
      serializedVersion: 2
      m_TileIndex: 140
      m_TileSpriteIndex: 140
      m_TileMatrixIndex: 0
      m_TileColorIndex: 0
      m_TileObjectToInstantiateIndex: 65535
      dummyAlignment: 0
      m_AllTileFlags: 1073741825
  - first: {x: 18, y: -11, z: 0}
    second:
      serializedVersion: 2
      m_TileIndex: 104
      m_TileSpriteIndex: 104
      m_TileMatrixIndex: 0
      m_TileColorIndex: 0
      m_TileObjectToInstantiateIndex: 65535
      dummyAlignment: 0
      m_AllTileFlags: 1073741825
  - first: {x: 20, y: -11, z: 0}
    second:
      serializedVersion: 2
      m_TileIndex: 105
      m_TileSpriteIndex: 105
      m_TileMatrixIndex: 0
      m_TileColorIndex: 0
      m_TileObjectToInstantiateIndex: 65535
      dummyAlignment: 0
      m_AllTileFlags: 1073741825
  - first: {x: 21, y: -11, z: 0}
    second:
      serializedVersion: 2
      m_TileIndex: 141
      m_TileSpriteIndex: 141
      m_TileMatrixIndex: 0
      m_TileColorIndex: 0
      m_TileObjectToInstantiateIndex: 65535
      dummyAlignment: 0
      m_AllTileFlags: 1073741825
  - first: {x: 22, y: -11, z: 0}
    second:
      serializedVersion: 2
      m_TileIndex: 106
      m_TileSpriteIndex: 106
      m_TileMatrixIndex: 0
      m_TileColorIndex: 0
      m_TileObjectToInstantiateIndex: 65535
      dummyAlignment: 0
      m_AllTileFlags: 1073741825
  - first: {x: 23, y: -11, z: 0}
    second:
      serializedVersion: 2
      m_TileIndex: 107
      m_TileSpriteIndex: 107
      m_TileMatrixIndex: 0
      m_TileColorIndex: 0
      m_TileObjectToInstantiateIndex: 65535
      dummyAlignment: 0
      m_AllTileFlags: 1073741825
  - first: {x: 8, y: -10, z: 0}
    second:
      serializedVersion: 2
      m_TileIndex: 85
      m_TileSpriteIndex: 85
      m_TileMatrixIndex: 0
      m_TileColorIndex: 0
      m_TileObjectToInstantiateIndex: 65535
      dummyAlignment: 0
      m_AllTileFlags: 1073741825
  - first: {x: 9, y: -10, z: 0}
    second:
      serializedVersion: 2
      m_TileIndex: 86
      m_TileSpriteIndex: 86
      m_TileMatrixIndex: 0
      m_TileColorIndex: 0
      m_TileObjectToInstantiateIndex: 65535
      dummyAlignment: 0
      m_AllTileFlags: 1073741825
  - first: {x: 10, y: -10, z: 0}
    second:
      serializedVersion: 2
      m_TileIndex: 138
      m_TileSpriteIndex: 138
      m_TileMatrixIndex: 0
      m_TileColorIndex: 0
      m_TileObjectToInstantiateIndex: 65535
      dummyAlignment: 0
      m_AllTileFlags: 1073741825
  - first: {x: 11, y: -10, z: 0}
    second:
      serializedVersion: 2
      m_TileIndex: 87
      m_TileSpriteIndex: 87
      m_TileMatrixIndex: 0
      m_TileColorIndex: 0
      m_TileObjectToInstantiateIndex: 65535
      dummyAlignment: 0
      m_AllTileFlags: 1073741825
  - first: {x: 12, y: -10, z: 0}
    second:
      serializedVersion: 2
      m_TileIndex: 88
      m_TileSpriteIndex: 88
      m_TileMatrixIndex: 0
      m_TileColorIndex: 0
      m_TileObjectToInstantiateIndex: 65535
      dummyAlignment: 0
      m_AllTileFlags: 1073741825
  - first: {x: 13, y: -10, z: 0}
    second:
      serializedVersion: 2
      m_TileIndex: 89
      m_TileSpriteIndex: 89
      m_TileMatrixIndex: 0
      m_TileColorIndex: 0
      m_TileObjectToInstantiateIndex: 65535
      dummyAlignment: 0
      m_AllTileFlags: 1073741825
  - first: {x: 14, y: -10, z: 0}
    second:
      serializedVersion: 2
      m_TileIndex: 90
      m_TileSpriteIndex: 90
      m_TileMatrixIndex: 0
      m_TileColorIndex: 0
      m_TileObjectToInstantiateIndex: 65535
      dummyAlignment: 0
      m_AllTileFlags: 1073741825
  - first: {x: 15, y: -10, z: 0}
    second:
      serializedVersion: 2
      m_TileIndex: 91
      m_TileSpriteIndex: 91
      m_TileMatrixIndex: 0
      m_TileColorIndex: 0
      m_TileObjectToInstantiateIndex: 65535
      dummyAlignment: 0
      m_AllTileFlags: 1073741825
  - first: {x: 16, y: -10, z: 0}
    second:
      serializedVersion: 2
      m_TileIndex: 92
      m_TileSpriteIndex: 92
      m_TileMatrixIndex: 0
      m_TileColorIndex: 0
      m_TileObjectToInstantiateIndex: 65535
      dummyAlignment: 0
      m_AllTileFlags: 1073741825
  - first: {x: 17, y: -10, z: 0}
    second:
      serializedVersion: 2
      m_TileIndex: 93
      m_TileSpriteIndex: 93
      m_TileMatrixIndex: 0
      m_TileColorIndex: 0
      m_TileObjectToInstantiateIndex: 65535
      dummyAlignment: 0
      m_AllTileFlags: 1073741825
  - first: {x: 18, y: -10, z: 0}
    second:
      serializedVersion: 2
      m_TileIndex: 94
      m_TileSpriteIndex: 94
      m_TileMatrixIndex: 0
      m_TileColorIndex: 0
      m_TileObjectToInstantiateIndex: 65535
      dummyAlignment: 0
      m_AllTileFlags: 1073741825
  - first: {x: 19, y: -10, z: 0}
    second:
      serializedVersion: 2
      m_TileIndex: 95
      m_TileSpriteIndex: 95
      m_TileMatrixIndex: 0
      m_TileColorIndex: 0
      m_TileObjectToInstantiateIndex: 65535
      dummyAlignment: 0
      m_AllTileFlags: 1073741825
  - first: {x: 20, y: -10, z: 0}
    second:
      serializedVersion: 2
      m_TileIndex: 96
      m_TileSpriteIndex: 96
      m_TileMatrixIndex: 0
      m_TileColorIndex: 0
      m_TileObjectToInstantiateIndex: 65535
      dummyAlignment: 0
      m_AllTileFlags: 1073741825
  - first: {x: 21, y: -10, z: 0}
    second:
      serializedVersion: 2
      m_TileIndex: 97
      m_TileSpriteIndex: 97
      m_TileMatrixIndex: 0
      m_TileColorIndex: 0
      m_TileObjectToInstantiateIndex: 65535
      dummyAlignment: 0
      m_AllTileFlags: 1073741825
  - first: {x: 22, y: -10, z: 0}
    second:
      serializedVersion: 2
      m_TileIndex: 98
      m_TileSpriteIndex: 98
      m_TileMatrixIndex: 0
      m_TileColorIndex: 0
      m_TileObjectToInstantiateIndex: 65535
      dummyAlignment: 0
      m_AllTileFlags: 1073741825
  - first: {x: 23, y: -10, z: 0}
    second:
      serializedVersion: 2
      m_TileIndex: 99
      m_TileSpriteIndex: 99
      m_TileMatrixIndex: 0
      m_TileColorIndex: 0
      m_TileObjectToInstantiateIndex: 65535
      dummyAlignment: 0
      m_AllTileFlags: 1073741825
  - first: {x: 8, y: -9, z: 0}
    second:
      serializedVersion: 2
      m_TileIndex: 70
      m_TileSpriteIndex: 70
      m_TileMatrixIndex: 0
      m_TileColorIndex: 0
      m_TileObjectToInstantiateIndex: 65535
      dummyAlignment: 0
      m_AllTileFlags: 1073741825
  - first: {x: 9, y: -9, z: 0}
    second:
      serializedVersion: 2
      m_TileIndex: 71
      m_TileSpriteIndex: 71
      m_TileMatrixIndex: 0
      m_TileColorIndex: 0
      m_TileObjectToInstantiateIndex: 65535
      dummyAlignment: 0
      m_AllTileFlags: 1073741825
  - first: {x: 10, y: -9, z: 0}
    second:
      serializedVersion: 2
      m_TileIndex: 72
      m_TileSpriteIndex: 72
      m_TileMatrixIndex: 0
      m_TileColorIndex: 0
      m_TileObjectToInstantiateIndex: 65535
      dummyAlignment: 0
      m_AllTileFlags: 1073741825
  - first: {x: 11, y: -9, z: 0}
    second:
      serializedVersion: 2
      m_TileIndex: 73
      m_TileSpriteIndex: 73
      m_TileMatrixIndex: 0
      m_TileColorIndex: 0
      m_TileObjectToInstantiateIndex: 65535
      dummyAlignment: 0
      m_AllTileFlags: 1073741825
  - first: {x: 12, y: -9, z: 0}
    second:
      serializedVersion: 2
      m_TileIndex: 74
      m_TileSpriteIndex: 74
      m_TileMatrixIndex: 0
      m_TileColorIndex: 0
      m_TileObjectToInstantiateIndex: 65535
      dummyAlignment: 0
      m_AllTileFlags: 1073741825
  - first: {x: 13, y: -9, z: 0}
    second:
      serializedVersion: 2
      m_TileIndex: 75
      m_TileSpriteIndex: 75
      m_TileMatrixIndex: 0
      m_TileColorIndex: 0
      m_TileObjectToInstantiateIndex: 65535
      dummyAlignment: 0
      m_AllTileFlags: 1073741825
  - first: {x: 14, y: -9, z: 0}
    second:
      serializedVersion: 2
      m_TileIndex: 76
      m_TileSpriteIndex: 76
      m_TileMatrixIndex: 0
      m_TileColorIndex: 0
      m_TileObjectToInstantiateIndex: 65535
      dummyAlignment: 0
      m_AllTileFlags: 1073741825
  - first: {x: 15, y: -9, z: 0}
    second:
      serializedVersion: 2
      m_TileIndex: 77
      m_TileSpriteIndex: 77
      m_TileMatrixIndex: 0
      m_TileColorIndex: 0
      m_TileObjectToInstantiateIndex: 65535
      dummyAlignment: 0
      m_AllTileFlags: 1073741825
  - first: {x: 16, y: -9, z: 0}
    second:
      serializedVersion: 2
      m_TileIndex: 78
      m_TileSpriteIndex: 78
      m_TileMatrixIndex: 0
      m_TileColorIndex: 0
      m_TileObjectToInstantiateIndex: 65535
      dummyAlignment: 0
      m_AllTileFlags: 1073741825
  - first: {x: 17, y: -9, z: 0}
    second:
      serializedVersion: 2
      m_TileIndex: 79
      m_TileSpriteIndex: 79
      m_TileMatrixIndex: 0
      m_TileColorIndex: 0
      m_TileObjectToInstantiateIndex: 65535
      dummyAlignment: 0
      m_AllTileFlags: 1073741825
  - first: {x: 18, y: -9, z: 0}
    second:
      serializedVersion: 2
      m_TileIndex: 80
      m_TileSpriteIndex: 80
      m_TileMatrixIndex: 0
      m_TileColorIndex: 0
      m_TileObjectToInstantiateIndex: 65535
      dummyAlignment: 0
      m_AllTileFlags: 1073741825
  - first: {x: 19, y: -9, z: 0}
    second:
      serializedVersion: 2
      m_TileIndex: 81
      m_TileSpriteIndex: 81
      m_TileMatrixIndex: 0
      m_TileColorIndex: 0
      m_TileObjectToInstantiateIndex: 65535
      dummyAlignment: 0
      m_AllTileFlags: 1073741825
  - first: {x: 20, y: -9, z: 0}
    second:
      serializedVersion: 2
      m_TileIndex: 82
      m_TileSpriteIndex: 82
      m_TileMatrixIndex: 0
      m_TileColorIndex: 0
      m_TileObjectToInstantiateIndex: 65535
      dummyAlignment: 0
      m_AllTileFlags: 1073741825
  - first: {x: 21, y: -9, z: 0}
    second:
      serializedVersion: 2
      m_TileIndex: 83
      m_TileSpriteIndex: 83
      m_TileMatrixIndex: 0
      m_TileColorIndex: 0
      m_TileObjectToInstantiateIndex: 65535
      dummyAlignment: 0
      m_AllTileFlags: 1073741825
  - first: {x: 23, y: -9, z: 0}
    second:
      serializedVersion: 2
      m_TileIndex: 84
      m_TileSpriteIndex: 84
      m_TileMatrixIndex: 0
      m_TileColorIndex: 0
      m_TileObjectToInstantiateIndex: 65535
      dummyAlignment: 0
      m_AllTileFlags: 1073741825
  - first: {x: 8, y: -8, z: 0}
    second:
      serializedVersion: 2
      m_TileIndex: 54
      m_TileSpriteIndex: 54
      m_TileMatrixIndex: 0
      m_TileColorIndex: 0
      m_TileObjectToInstantiateIndex: 65535
      dummyAlignment: 0
      m_AllTileFlags: 1073741825
  - first: {x: 9, y: -8, z: 0}
    second:
      serializedVersion: 2
      m_TileIndex: 55
      m_TileSpriteIndex: 55
      m_TileMatrixIndex: 0
      m_TileColorIndex: 0
      m_TileObjectToInstantiateIndex: 65535
      dummyAlignment: 0
      m_AllTileFlags: 1073741825
  - first: {x: 10, y: -8, z: 0}
    second:
      serializedVersion: 2
      m_TileIndex: 56
      m_TileSpriteIndex: 56
      m_TileMatrixIndex: 0
      m_TileColorIndex: 0
      m_TileObjectToInstantiateIndex: 65535
      dummyAlignment: 0
      m_AllTileFlags: 1073741825
  - first: {x: 11, y: -8, z: 0}
    second:
      serializedVersion: 2
      m_TileIndex: 57
      m_TileSpriteIndex: 57
      m_TileMatrixIndex: 0
      m_TileColorIndex: 0
      m_TileObjectToInstantiateIndex: 65535
      dummyAlignment: 0
      m_AllTileFlags: 1073741825
  - first: {x: 12, y: -8, z: 0}
    second:
      serializedVersion: 2
      m_TileIndex: 58
      m_TileSpriteIndex: 58
      m_TileMatrixIndex: 0
      m_TileColorIndex: 0
      m_TileObjectToInstantiateIndex: 65535
      dummyAlignment: 0
      m_AllTileFlags: 1073741825
  - first: {x: 13, y: -8, z: 0}
    second:
      serializedVersion: 2
      m_TileIndex: 59
      m_TileSpriteIndex: 59
      m_TileMatrixIndex: 0
      m_TileColorIndex: 0
      m_TileObjectToInstantiateIndex: 65535
      dummyAlignment: 0
      m_AllTileFlags: 1073741825
  - first: {x: 14, y: -8, z: 0}
    second:
      serializedVersion: 2
      m_TileIndex: 60
      m_TileSpriteIndex: 60
      m_TileMatrixIndex: 0
      m_TileColorIndex: 0
      m_TileObjectToInstantiateIndex: 65535
      dummyAlignment: 0
      m_AllTileFlags: 1073741825
  - first: {x: 15, y: -8, z: 0}
    second:
      serializedVersion: 2
      m_TileIndex: 61
      m_TileSpriteIndex: 61
      m_TileMatrixIndex: 0
      m_TileColorIndex: 0
      m_TileObjectToInstantiateIndex: 65535
      dummyAlignment: 0
      m_AllTileFlags: 1073741825
  - first: {x: 16, y: -8, z: 0}
    second:
      serializedVersion: 2
      m_TileIndex: 62
      m_TileSpriteIndex: 62
      m_TileMatrixIndex: 0
      m_TileColorIndex: 0
      m_TileObjectToInstantiateIndex: 65535
      dummyAlignment: 0
      m_AllTileFlags: 1073741825
  - first: {x: 17, y: -8, z: 0}
    second:
      serializedVersion: 2
      m_TileIndex: 63
      m_TileSpriteIndex: 63
      m_TileMatrixIndex: 0
      m_TileColorIndex: 0
      m_TileObjectToInstantiateIndex: 65535
      dummyAlignment: 0
      m_AllTileFlags: 1073741825
  - first: {x: 18, y: -8, z: 0}
    second:
      serializedVersion: 2
      m_TileIndex: 64
      m_TileSpriteIndex: 64
      m_TileMatrixIndex: 0
      m_TileColorIndex: 0
      m_TileObjectToInstantiateIndex: 65535
      dummyAlignment: 0
      m_AllTileFlags: 1073741825
  - first: {x: 19, y: -8, z: 0}
    second:
      serializedVersion: 2
      m_TileIndex: 65
      m_TileSpriteIndex: 65
      m_TileMatrixIndex: 0
      m_TileColorIndex: 0
      m_TileObjectToInstantiateIndex: 65535
      dummyAlignment: 0
      m_AllTileFlags: 1073741825
  - first: {x: 20, y: -8, z: 0}
    second:
      serializedVersion: 2
      m_TileIndex: 66
      m_TileSpriteIndex: 66
      m_TileMatrixIndex: 0
      m_TileColorIndex: 0
      m_TileObjectToInstantiateIndex: 65535
      dummyAlignment: 0
      m_AllTileFlags: 1073741825
  - first: {x: 21, y: -8, z: 0}
    second:
      serializedVersion: 2
      m_TileIndex: 67
      m_TileSpriteIndex: 67
      m_TileMatrixIndex: 0
      m_TileColorIndex: 0
      m_TileObjectToInstantiateIndex: 65535
      dummyAlignment: 0
      m_AllTileFlags: 1073741825
  - first: {x: 22, y: -8, z: 0}
    second:
      serializedVersion: 2
      m_TileIndex: 68
      m_TileSpriteIndex: 68
      m_TileMatrixIndex: 0
      m_TileColorIndex: 0
      m_TileObjectToInstantiateIndex: 65535
      dummyAlignment: 0
      m_AllTileFlags: 1073741825
  - first: {x: 23, y: -8, z: 0}
    second:
      serializedVersion: 2
      m_TileIndex: 69
      m_TileSpriteIndex: 69
      m_TileMatrixIndex: 0
      m_TileColorIndex: 0
      m_TileObjectToInstantiateIndex: 65535
      dummyAlignment: 0
      m_AllTileFlags: 1073741825
  - first: {x: 8, y: -7, z: 0}
    second:
      serializedVersion: 2
      m_TileIndex: 42
      m_TileSpriteIndex: 42
      m_TileMatrixIndex: 0
      m_TileColorIndex: 0
      m_TileObjectToInstantiateIndex: 65535
      dummyAlignment: 0
      m_AllTileFlags: 1073741825
  - first: {x: 9, y: -7, z: 0}
    second:
      serializedVersion: 2
      m_TileIndex: 43
      m_TileSpriteIndex: 43
      m_TileMatrixIndex: 0
      m_TileColorIndex: 0
      m_TileObjectToInstantiateIndex: 65535
      dummyAlignment: 0
      m_AllTileFlags: 1073741825
  - first: {x: 10, y: -7, z: 0}
    second:
      serializedVersion: 2
      m_TileIndex: 44
      m_TileSpriteIndex: 44
      m_TileMatrixIndex: 0
      m_TileColorIndex: 0
      m_TileObjectToInstantiateIndex: 65535
      dummyAlignment: 0
      m_AllTileFlags: 1073741825
  - first: {x: 12, y: -7, z: 0}
    second:
      serializedVersion: 2
      m_TileIndex: 45
      m_TileSpriteIndex: 45
      m_TileMatrixIndex: 0
      m_TileColorIndex: 0
      m_TileObjectToInstantiateIndex: 65535
      dummyAlignment: 0
      m_AllTileFlags: 1073741825
  - first: {x: 13, y: -7, z: 0}
    second:
      serializedVersion: 2
      m_TileIndex: 136
      m_TileSpriteIndex: 136
      m_TileMatrixIndex: 0
      m_TileColorIndex: 0
      m_TileObjectToInstantiateIndex: 65535
      dummyAlignment: 0
      m_AllTileFlags: 1073741825
  - first: {x: 14, y: -7, z: 0}
    second:
      serializedVersion: 2
      m_TileIndex: 46
      m_TileSpriteIndex: 46
      m_TileMatrixIndex: 0
      m_TileColorIndex: 0
      m_TileObjectToInstantiateIndex: 65535
      dummyAlignment: 0
      m_AllTileFlags: 1073741825
  - first: {x: 15, y: -7, z: 0}
    second:
      serializedVersion: 2
      m_TileIndex: 47
      m_TileSpriteIndex: 47
      m_TileMatrixIndex: 0
      m_TileColorIndex: 0
      m_TileObjectToInstantiateIndex: 65535
      dummyAlignment: 0
      m_AllTileFlags: 1073741825
  - first: {x: 16, y: -7, z: 0}
    second:
      serializedVersion: 2
      m_TileIndex: 48
      m_TileSpriteIndex: 48
      m_TileMatrixIndex: 0
      m_TileColorIndex: 0
      m_TileObjectToInstantiateIndex: 65535
      dummyAlignment: 0
      m_AllTileFlags: 1073741825
  - first: {x: 17, y: -7, z: 0}
    second:
      serializedVersion: 2
      m_TileIndex: 49
      m_TileSpriteIndex: 49
      m_TileMatrixIndex: 0
      m_TileColorIndex: 0
      m_TileObjectToInstantiateIndex: 65535
      dummyAlignment: 0
      m_AllTileFlags: 1073741825
  - first: {x: 18, y: -7, z: 0}
    second:
      serializedVersion: 2
      m_TileIndex: 50
      m_TileSpriteIndex: 50
      m_TileMatrixIndex: 0
      m_TileColorIndex: 0
      m_TileObjectToInstantiateIndex: 65535
      dummyAlignment: 0
      m_AllTileFlags: 1073741825
  - first: {x: 20, y: -7, z: 0}
    second:
      serializedVersion: 2
      m_TileIndex: 51
      m_TileSpriteIndex: 51
      m_TileMatrixIndex: 0
      m_TileColorIndex: 0
      m_TileObjectToInstantiateIndex: 65535
      dummyAlignment: 0
      m_AllTileFlags: 1073741825
  - first: {x: 21, y: -7, z: 0}
    second:
      serializedVersion: 2
      m_TileIndex: 52
      m_TileSpriteIndex: 52
      m_TileMatrixIndex: 0
      m_TileColorIndex: 0
      m_TileObjectToInstantiateIndex: 65535
      dummyAlignment: 0
      m_AllTileFlags: 1073741825
  - first: {x: 22, y: -7, z: 0}
    second:
      serializedVersion: 2
      m_TileIndex: 137
      m_TileSpriteIndex: 137
      m_TileMatrixIndex: 0
      m_TileColorIndex: 0
      m_TileObjectToInstantiateIndex: 65535
      dummyAlignment: 0
      m_AllTileFlags: 1073741825
  - first: {x: 23, y: -7, z: 0}
    second:
      serializedVersion: 2
      m_TileIndex: 53
      m_TileSpriteIndex: 53
      m_TileMatrixIndex: 0
      m_TileColorIndex: 0
      m_TileObjectToInstantiateIndex: 65535
      dummyAlignment: 0
      m_AllTileFlags: 1073741825
  - first: {x: 2, y: -6, z: 0}
    second:
      serializedVersion: 2
      m_TileIndex: 15
      m_TileSpriteIndex: 29
      m_TileMatrixIndex: 0
      m_TileColorIndex: 0
      m_TileObjectToInstantiateIndex: 65535
      dummyAlignment: 0
      m_AllTileFlags: 2147483650
  - first: {x: 4, y: -6, z: 0}
    second:
      serializedVersion: 2
      m_TileIndex: 16
      m_TileSpriteIndex: 27
      m_TileMatrixIndex: 0
      m_TileColorIndex: 0
      m_TileObjectToInstantiateIndex: 65535
      dummyAlignment: 0
      m_AllTileFlags: 1073741825
  - first: {x: 6, y: -6, z: 0}
    second:
      serializedVersion: 2
      m_TileIndex: 17
      m_TileSpriteIndex: 26
      m_TileMatrixIndex: 0
      m_TileColorIndex: 0
      m_TileObjectToInstantiateIndex: 65535
      dummyAlignment: 0
      m_AllTileFlags: 2
  - first: {x: 9, y: -6, z: 0}
    second:
      serializedVersion: 2
      m_TileIndex: 135
      m_TileSpriteIndex: 135
      m_TileMatrixIndex: 0
      m_TileColorIndex: 0
      m_TileObjectToInstantiateIndex: 65535
      dummyAlignment: 0
      m_AllTileFlags: 1073741825
  - first: {x: 10, y: -6, z: 0}
    second:
      serializedVersion: 2
      m_TileIndex: 29
      m_TileSpriteIndex: 1
      m_TileMatrixIndex: 0
      m_TileColorIndex: 0
      m_TileObjectToInstantiateIndex: 65535
      dummyAlignment: 0
      m_AllTileFlags: 1073741825
  - first: {x: 11, y: -6, z: 0}
    second:
      serializedVersion: 2
      m_TileIndex: 28
      m_TileSpriteIndex: 0
      m_TileMatrixIndex: 0
      m_TileColorIndex: 0
      m_TileObjectToInstantiateIndex: 65535
      dummyAlignment: 0
      m_AllTileFlags: 1073741825
  - first: {x: 12, y: -6, z: 0}
    second:
      serializedVersion: 2
      m_TileIndex: 30
      m_TileSpriteIndex: 30
      m_TileMatrixIndex: 0
      m_TileColorIndex: 0
      m_TileObjectToInstantiateIndex: 65535
      dummyAlignment: 0
      m_AllTileFlags: 1073741825
  - first: {x: 13, y: -6, z: 0}
    second:
      serializedVersion: 2
      m_TileIndex: 31
      m_TileSpriteIndex: 31
      m_TileMatrixIndex: 0
      m_TileColorIndex: 0
      m_TileObjectToInstantiateIndex: 65535
      dummyAlignment: 0
      m_AllTileFlags: 1073741825
  - first: {x: 14, y: -6, z: 0}
    second:
      serializedVersion: 2
      m_TileIndex: 32
      m_TileSpriteIndex: 32
      m_TileMatrixIndex: 0
      m_TileColorIndex: 0
      m_TileObjectToInstantiateIndex: 65535
      dummyAlignment: 0
      m_AllTileFlags: 1073741825
  - first: {x: 15, y: -6, z: 0}
    second:
      serializedVersion: 2
      m_TileIndex: 33
      m_TileSpriteIndex: 33
      m_TileMatrixIndex: 0
      m_TileColorIndex: 0
      m_TileObjectToInstantiateIndex: 65535
      dummyAlignment: 0
      m_AllTileFlags: 1073741825
  - first: {x: 16, y: -6, z: 0}
    second:
      serializedVersion: 2
      m_TileIndex: 34
      m_TileSpriteIndex: 34
      m_TileMatrixIndex: 0
      m_TileColorIndex: 0
      m_TileObjectToInstantiateIndex: 65535
      dummyAlignment: 0
      m_AllTileFlags: 1073741825
  - first: {x: 17, y: -6, z: 0}
    second:
      serializedVersion: 2
      m_TileIndex: 35
      m_TileSpriteIndex: 35
      m_TileMatrixIndex: 0
      m_TileColorIndex: 0
      m_TileObjectToInstantiateIndex: 65535
      dummyAlignment: 0
      m_AllTileFlags: 1073741825
  - first: {x: 18, y: -6, z: 0}
    second:
      serializedVersion: 2
      m_TileIndex: 36
      m_TileSpriteIndex: 36
      m_TileMatrixIndex: 0
      m_TileColorIndex: 0
      m_TileObjectToInstantiateIndex: 65535
      dummyAlignment: 0
      m_AllTileFlags: 1073741825
  - first: {x: 19, y: -6, z: 0}
    second:
      serializedVersion: 2
      m_TileIndex: 37
      m_TileSpriteIndex: 37
      m_TileMatrixIndex: 0
      m_TileColorIndex: 0
      m_TileObjectToInstantiateIndex: 65535
      dummyAlignment: 0
      m_AllTileFlags: 1073741825
  - first: {x: 20, y: -6, z: 0}
    second:
      serializedVersion: 2
      m_TileIndex: 38
      m_TileSpriteIndex: 38
      m_TileMatrixIndex: 0
      m_TileColorIndex: 0
      m_TileObjectToInstantiateIndex: 65535
      dummyAlignment: 0
      m_AllTileFlags: 1073741825
  - first: {x: 21, y: -6, z: 0}
    second:
      serializedVersion: 2
      m_TileIndex: 39
      m_TileSpriteIndex: 39
      m_TileMatrixIndex: 0
      m_TileColorIndex: 0
      m_TileObjectToInstantiateIndex: 65535
      dummyAlignment: 0
      m_AllTileFlags: 1073741825
  - first: {x: 22, y: -6, z: 0}
    second:
      serializedVersion: 2
      m_TileIndex: 40
      m_TileSpriteIndex: 40
      m_TileMatrixIndex: 0
      m_TileColorIndex: 0
      m_TileObjectToInstantiateIndex: 65535
      dummyAlignment: 0
      m_AllTileFlags: 1073741825
  - first: {x: 23, y: -6, z: 0}
    second:
      serializedVersion: 2
      m_TileIndex: 41
      m_TileSpriteIndex: 41
      m_TileMatrixIndex: 0
      m_TileColorIndex: 0
      m_TileObjectToInstantiateIndex: 65535
      dummyAlignment: 0
      m_AllTileFlags: 1073741825
  - first: {x: 2, y: -4, z: 0}
    second:
      serializedVersion: 2
      m_TileIndex: 12
      m_TileSpriteIndex: 22
      m_TileMatrixIndex: 0
      m_TileColorIndex: 0
      m_TileObjectToInstantiateIndex: 65535
      dummyAlignment: 0
      m_AllTileFlags: 1073741825
  - first: {x: 4, y: -4, z: 0}
    second:
      serializedVersion: 2
      m_TileIndex: 13
      m_TileSpriteIndex: 21
      m_TileMatrixIndex: 0
      m_TileColorIndex: 0
      m_TileObjectToInstantiateIndex: 65535
      dummyAlignment: 0
      m_AllTileFlags: 1073741825
  - first: {x: 6, y: -4, z: 0}
    second:
      serializedVersion: 2
      m_TileIndex: 14
      m_TileSpriteIndex: 20
      m_TileMatrixIndex: 0
      m_TileColorIndex: 0
      m_TileObjectToInstantiateIndex: 65535
      dummyAlignment: 0
      m_AllTileFlags: 2147483650
  - first: {x: -2, y: -2, z: 0}
    second:
      serializedVersion: 2
      m_TileIndex: 24
      m_TileSpriteIndex: 24
      m_TileMatrixIndex: 0
      m_TileColorIndex: 0
      m_TileObjectToInstantiateIndex: 65535
      dummyAlignment: 0
      m_AllTileFlags: 1073741825
  - first: {x: 0, y: -2, z: 0}
    second:
      serializedVersion: 2
      m_TileIndex: 25
      m_TileSpriteIndex: 25
      m_TileMatrixIndex: 0
      m_TileColorIndex: 0
      m_TileObjectToInstantiateIndex: 65535
      dummyAlignment: 0
      m_AllTileFlags: 1073741825
  - first: {x: 2, y: -2, z: 0}
    second:
      serializedVersion: 2
      m_TileIndex: 9
      m_TileSpriteIndex: 19
      m_TileMatrixIndex: 0
      m_TileColorIndex: 0
      m_TileObjectToInstantiateIndex: 65535
      dummyAlignment: 0
      m_AllTileFlags: 1073741826
  - first: {x: 4, y: -2, z: 0}
    second:
      serializedVersion: 2
      m_TileIndex: 10
      m_TileSpriteIndex: 18
      m_TileMatrixIndex: 0
      m_TileColorIndex: 0
      m_TileObjectToInstantiateIndex: 65535
      dummyAlignment: 0
      m_AllTileFlags: 1073741825
  - first: {x: 6, y: -2, z: 0}
    second:
      serializedVersion: 2
      m_TileIndex: 11
      m_TileSpriteIndex: 17
      m_TileMatrixIndex: 0
      m_TileColorIndex: 0
      m_TileObjectToInstantiateIndex: 65535
      dummyAlignment: 0
      m_AllTileFlags: 1073741825
  - first: {x: -2, y: 0, z: 0}
    second:
      serializedVersion: 2
      m_TileIndex: 21
      m_TileSpriteIndex: 16
      m_TileMatrixIndex: 0
      m_TileColorIndex: 0
      m_TileObjectToInstantiateIndex: 65535
      dummyAlignment: 0
      m_AllTileFlags: 1073741825
  - first: {x: -1, y: 0, z: 0}
    second:
      serializedVersion: 2
      m_TileIndex: 20
      m_TileSpriteIndex: 15
      m_TileMatrixIndex: 0
      m_TileColorIndex: 0
      m_TileObjectToInstantiateIndex: 65535
      dummyAlignment: 0
      m_AllTileFlags: 1073741825
  - first: {x: 0, y: 0, z: 0}
    second:
      serializedVersion: 2
      m_TileIndex: 18
      m_TileSpriteIndex: 5
      m_TileMatrixIndex: 0
      m_TileColorIndex: 0
      m_TileObjectToInstantiateIndex: 65535
      dummyAlignment: 0
      m_AllTileFlags: 1073741825
  - first: {x: 2, y: 0, z: 0}
    second:
      serializedVersion: 2
      m_TileIndex: 3
      m_TileSpriteIndex: 13
      m_TileMatrixIndex: 0
      m_TileColorIndex: 0
      m_TileObjectToInstantiateIndex: 65535
      dummyAlignment: 0
      m_AllTileFlags: 1073741826
  - first: {x: 4, y: 0, z: 0}
    second:
      serializedVersion: 2
      m_TileIndex: 2
      m_TileSpriteIndex: 12
      m_TileMatrixIndex: 0
      m_TileColorIndex: 0
      m_TileObjectToInstantiateIndex: 65535
      dummyAlignment: 0
      m_AllTileFlags: 1073741826
  - first: {x: 6, y: 0, z: 0}
    second:
      serializedVersion: 2
      m_TileIndex: 6
      m_TileSpriteIndex: 14
      m_TileMatrixIndex: 0
      m_TileColorIndex: 0
      m_TileObjectToInstantiateIndex: 65535
      dummyAlignment: 0
      m_AllTileFlags: 1073741826
  - first: {x: -1, y: 2, z: 0}
    second:
      serializedVersion: 2
      m_TileIndex: 19
      m_TileSpriteIndex: 3
      m_TileMatrixIndex: 0
      m_TileColorIndex: 0
      m_TileObjectToInstantiateIndex: 65535
      dummyAlignment: 0
      m_AllTileFlags: 1073741825
  - first: {x: 0, y: 2, z: 0}
    second:
      serializedVersion: 2
      m_TileIndex: 22
      m_TileSpriteIndex: 4
      m_TileMatrixIndex: 0
      m_TileColorIndex: 0
      m_TileObjectToInstantiateIndex: 65535
      dummyAlignment: 0
      m_AllTileFlags: 1073741825
  - first: {x: 2, y: 2, z: 0}
    second:
      serializedVersion: 2
      m_TileIndex: 1
      m_TileSpriteIndex: 10
      m_TileMatrixIndex: 0
      m_TileColorIndex: 0
      m_TileObjectToInstantiateIndex: 65535
      dummyAlignment: 0
      m_AllTileFlags: 1073741826
  - first: {x: 4, y: 2, z: 0}
    second:
      serializedVersion: 2
      m_TileIndex: 0
      m_TileSpriteIndex: 9
      m_TileMatrixIndex: 0
      m_TileColorIndex: 0
      m_TileObjectToInstantiateIndex: 65535
      dummyAlignment: 0
      m_AllTileFlags: 1073741826
  - first: {x: 6, y: 2, z: 0}
    second:
      serializedVersion: 2
      m_TileIndex: 7
      m_TileSpriteIndex: 11
      m_TileMatrixIndex: 0
      m_TileColorIndex: 0
      m_TileObjectToInstantiateIndex: 65535
      dummyAlignment: 0
      m_AllTileFlags: 1073741825
  - first: {x: 0, y: 4, z: 0}
    second:
      serializedVersion: 2
      m_TileIndex: 23
      m_TileSpriteIndex: 28
      m_TileMatrixIndex: 0
      m_TileColorIndex: 0
      m_TileObjectToInstantiateIndex: 65535
      dummyAlignment: 0
      m_AllTileFlags: 1073741826
  - first: {x: 2, y: 4, z: 0}
    second:
      serializedVersion: 2
      m_TileIndex: 4
      m_TileSpriteIndex: 23
      m_TileMatrixIndex: 0
      m_TileColorIndex: 0
      m_TileObjectToInstantiateIndex: 65535
      dummyAlignment: 0
      m_AllTileFlags: 1073741826
  - first: {x: 4, y: 4, z: 0}
    second:
      serializedVersion: 2
      m_TileIndex: 8
      m_TileSpriteIndex: 8
      m_TileMatrixIndex: 0
      m_TileColorIndex: 0
      m_TileObjectToInstantiateIndex: 65535
      dummyAlignment: 0
      m_AllTileFlags: 1073741826
  - first: {x: 6, y: 4, z: 0}
    second:
      serializedVersion: 2
      m_TileIndex: 5
      m_TileSpriteIndex: 7
      m_TileMatrixIndex: 0
      m_TileColorIndex: 0
      m_TileObjectToInstantiateIndex: 65535
      dummyAlignment: 0
      m_AllTileFlags: 1073741826
  - first: {x: 8, y: 4, z: 0}
    second:
      serializedVersion: 2
      m_TileIndex: 27
      m_TileSpriteIndex: 6
      m_TileMatrixIndex: 0
      m_TileColorIndex: 0
      m_TileObjectToInstantiateIndex: 65535
      dummyAlignment: 0
      m_AllTileFlags: 1073741826
  - first: {x: 10, y: 4, z: 0}
    second:
      serializedVersion: 2
      m_TileIndex: 26
      m_TileSpriteIndex: 2
      m_TileMatrixIndex: 0
      m_TileColorIndex: 0
      m_TileObjectToInstantiateIndex: 65535
      dummyAlignment: 0
      m_AllTileFlags: 1073741826
  m_AnimatedTiles:
  - first: {x: 6, y: -4, z: 0}
    second:
      m_AnimatedSprites:
      - {fileID: 21300004, guid: 53835a543eadc4ff8b2955079199b882, type: 3}
      - {fileID: 21300006, guid: 53835a543eadc4ff8b2955079199b882, type: 3}
      - {fileID: 21300008, guid: 53835a543eadc4ff8b2955079199b882, type: 3}
      - {fileID: 21300006, guid: 53835a543eadc4ff8b2955079199b882, type: 3}
      m_AnimationSpeed: 5
      m_AnimationTimeOffset: 0
      m_IsLooping: 1
  - first: {x: 6, y: 0, z: 0}
    second:
      m_AnimatedSprites:
      - {fileID: 21300128, guid: c896ec8f9ab9e458284e703b0e96c024, type: 3}
      - {fileID: 21300142, guid: c896ec8f9ab9e458284e703b0e96c024, type: 3}
      m_AnimationSpeed: 6
      m_AnimationTimeOffset: 0
      m_IsLooping: 1
  m_TileAssetArray:
  - m_RefCount: 1
    m_Data: {fileID: 11400000, guid: cc8c57e51dc7d4e978be676128a6b9ef, type: 2}
  - m_RefCount: 1
    m_Data: {fileID: 11400000, guid: 55ae207e0316941699787f3fbf130380, type: 2}
  - m_RefCount: 1
    m_Data: {fileID: 11400000, guid: f48d9376edd094f49b74a4e575d2be8b, type: 2}
  - m_RefCount: 1
    m_Data: {fileID: 11400000, guid: b8c6e8e3194d344a49f05166de7b63cc, type: 2}
  - m_RefCount: 1
    m_Data: {fileID: 11400000, guid: d58ea8b7d0f444501aed7efbc71228f9, type: 2}
  - m_RefCount: 1
    m_Data: {fileID: 11400000, guid: 30b48dede32a64a2eacc76475846dad6, type: 2}
  - m_RefCount: 1
    m_Data: {fileID: 11400000, guid: 268e6c13d2a6947929f960b5d0ee1df4, type: 2}
  - m_RefCount: 1
    m_Data: {fileID: 11400000, guid: 7862bb2ab20754f42bef5f4546ee6b50, type: 2}
  - m_RefCount: 1
    m_Data: {fileID: 11400000, guid: 0cb935d5f452c455daf5cab559c7d1ee, type: 2}
  - m_RefCount: 1
    m_Data: {fileID: 11400000, guid: 3124f21592cf34bf28b2091b6d2c19c2, type: 2}
  - m_RefCount: 1
    m_Data: {fileID: 11400000, guid: a7f03219aca9a486bb9081ab7fe08f8a, type: 2}
  - m_RefCount: 1
    m_Data: {fileID: 11400000, guid: c45c48efa62694be7a147eda98025841, type: 2}
  - m_RefCount: 1
    m_Data: {fileID: 11400000, guid: 92d288e5cd6c744a590cccfed40edcb7, type: 2}
  - m_RefCount: 1
    m_Data: {fileID: 11400000, guid: aa5123fc50bb1460ebcf0383d3ba6c4a, type: 2}
  - m_RefCount: 1
    m_Data: {fileID: 11400000, guid: 9dc96f497a9554b2c89fd92e884f7f28, type: 2}
  - m_RefCount: 1
    m_Data: {fileID: 11400000, guid: dd64ea5df1ae0411b81609eafc4f345f, type: 2}
  - m_RefCount: 1
    m_Data: {fileID: 11400000, guid: a02dca59a3cf9439483a447470473b16, type: 2}
  - m_RefCount: 1
    m_Data: {fileID: 11400000, guid: 32826221c895e4e6cb8bc31c0a578488, type: 2}
  - m_RefCount: 1
    m_Data: {fileID: 11400000, guid: 89fb65f4d2d026d4fb098f5e36c816e8, type: 2}
  - m_RefCount: 1
    m_Data: {fileID: 11400000, guid: c1e40aa16153455478f45e39d57ce649, type: 2}
  - m_RefCount: 1
    m_Data: {fileID: 11400000, guid: 5da7f512415c22045a0b5ad7f9840073, type: 2}
  - m_RefCount: 1
    m_Data: {fileID: 11400000, guid: 6eb2ab11545bba34997970a97359abd3, type: 2}
  - m_RefCount: 1
    m_Data: {fileID: 11400000, guid: 7e93b8737317e7b4b9b8956183d99e45, type: 2}
  - m_RefCount: 1
    m_Data: {fileID: 11400000, guid: 322a32dac5fd55c4bb6183c367fbc277, type: 2}
  - m_RefCount: 1
    m_Data: {fileID: 11400000, guid: a55efc88de92b5d44881101697bf890e, type: 2}
  - m_RefCount: 1
    m_Data: {fileID: 11400000, guid: c5ac2abb04a3f214fb9e7ddf192c37d5, type: 2}
  - m_RefCount: 1
    m_Data: {fileID: 11400000, guid: a908121288e09c85c231a1fbbbf3b72b, type: 2}
  - m_RefCount: 1
    m_Data: {fileID: 11400000, guid: 00cdd122ac0a8bfb4d3b5eabcb551f45, type: 2}
  - m_RefCount: 1
    m_Data: {fileID: 11400000, guid: 300f494f933386c4dbe1ab9efd9ad36d, type: 2}
  - m_RefCount: 1
    m_Data: {fileID: 11400000, guid: 38fcd40cac56c0e429e23d3d25e53989, type: 2}
  - m_RefCount: 1
    m_Data: {fileID: 11400000, guid: 0eac961215dadb64d8ea4419e693d9fb, type: 2}
  - m_RefCount: 1
    m_Data: {fileID: 11400000, guid: 223f4d08f48e40b4ca7e0ba50af5c2a7, type: 2}
  - m_RefCount: 1
    m_Data: {fileID: 11400000, guid: 2fcd19fc0ed75954e84c82492b0815e2, type: 2}
  - m_RefCount: 1
    m_Data: {fileID: 11400000, guid: 93edc478e167fcc4989e7ef9162bbf7e, type: 2}
  - m_RefCount: 1
    m_Data: {fileID: 11400000, guid: 45d825b1dca33e344893413d6cc35667, type: 2}
  - m_RefCount: 1
    m_Data: {fileID: 11400000, guid: 9accdca363fa87d4d8a8083c54b9501d, type: 2}
  - m_RefCount: 1
    m_Data: {fileID: 11400000, guid: 2becac9b638b73b49a6ad9f198d02668, type: 2}
  - m_RefCount: 1
    m_Data: {fileID: 11400000, guid: 5db2d049ed7c11446b96eace3d75eaac, type: 2}
  - m_RefCount: 1
    m_Data: {fileID: 11400000, guid: 372d4874b43efb14c812937d94f98a31, type: 2}
  - m_RefCount: 1
    m_Data: {fileID: 11400000, guid: 85bb200aab51ea04cbb32687b05d3a02, type: 2}
  - m_RefCount: 1
    m_Data: {fileID: 11400000, guid: f37dd32ea7b65ff4b8d603c12df5ba7d, type: 2}
  - m_RefCount: 1
    m_Data: {fileID: 11400000, guid: 6eed687c944c937408f41af54f824a34, type: 2}
  - m_RefCount: 1
    m_Data: {fileID: 11400000, guid: 5d488dae2a681f84185fc485b5e44c1f, type: 2}
  - m_RefCount: 1
    m_Data: {fileID: 11400000, guid: 286e186026190de4996505651f2b8f00, type: 2}
  - m_RefCount: 1
    m_Data: {fileID: 11400000, guid: 04592f0f661e6ee48b2196535dbfa890, type: 2}
  - m_RefCount: 1
    m_Data: {fileID: 11400000, guid: 740f9e800079bd44fa37d70a7e3d25e3, type: 2}
  - m_RefCount: 1
    m_Data: {fileID: 11400000, guid: 4ffbb1887f752144b938d2ab6854c90c, type: 2}
  - m_RefCount: 1
    m_Data: {fileID: 11400000, guid: 63dd350e6f73b5d48a635dce5e5dc84c, type: 2}
  - m_RefCount: 1
    m_Data: {fileID: 11400000, guid: 1a82b133dd9715e4ba936da40792a7a1, type: 2}
  - m_RefCount: 1
    m_Data: {fileID: 11400000, guid: 291c33fe61f1ed84c909acbbd33b4611, type: 2}
  - m_RefCount: 1
    m_Data: {fileID: 11400000, guid: 8721adad3b52dc94b89793c2d077e4b2, type: 2}
  - m_RefCount: 1
    m_Data: {fileID: 11400000, guid: 4557db3fb11f400469991dca8060ef12, type: 2}
  - m_RefCount: 1
    m_Data: {fileID: 11400000, guid: 8a048c8873b8a5a4cbb4426c72839745, type: 2}
  - m_RefCount: 1
    m_Data: {fileID: 11400000, guid: 82cd164cddaaf7e40bb1746a5ae50bce, type: 2}
  - m_RefCount: 1
    m_Data: {fileID: 11400000, guid: 40e4eede0439a2c4fab81af027e1a2dd, type: 2}
  - m_RefCount: 1
    m_Data: {fileID: 11400000, guid: 68c92b1e6a56b8e4194b8ffce9d90c96, type: 2}
  - m_RefCount: 1
    m_Data: {fileID: 11400000, guid: 005198fe3c97c474e8542caf7050d7b1, type: 2}
  - m_RefCount: 1
    m_Data: {fileID: 11400000, guid: 7bfeb1730ea19ad4a8568acd290031ea, type: 2}
  - m_RefCount: 1
    m_Data: {fileID: 11400000, guid: 34828b8389c4bf04c8df9d1aedb2d828, type: 2}
  - m_RefCount: 1
    m_Data: {fileID: 11400000, guid: d6b40f9985433b14693184678509cffe, type: 2}
  - m_RefCount: 1
    m_Data: {fileID: 11400000, guid: 4a93982a722a13d40a8d99749b7875d2, type: 2}
  - m_RefCount: 1
    m_Data: {fileID: 11400000, guid: d85d3fdcaddceb848842352acb259d28, type: 2}
  - m_RefCount: 1
    m_Data: {fileID: 11400000, guid: 73a8173de64093947b9883306a646ec5, type: 2}
  - m_RefCount: 1
    m_Data: {fileID: 11400000, guid: 1ebc8f5977ae21941b2b845d4cdf1996, type: 2}
  - m_RefCount: 1
    m_Data: {fileID: 11400000, guid: 1fdba86b18e91b64e952a76a049d2058, type: 2}
  - m_RefCount: 1
    m_Data: {fileID: 11400000, guid: 872a6d454064923438e93d23c69d0633, type: 2}
  - m_RefCount: 1
    m_Data: {fileID: 11400000, guid: 425516a8d3cdc304ab5741cf394dbba2, type: 2}
  - m_RefCount: 1
    m_Data: {fileID: 11400000, guid: 9fd4d44db26eee04ea0bb1d7b23aab24, type: 2}
  - m_RefCount: 1
    m_Data: {fileID: 11400000, guid: 3f00c6cb72dec7a44b7d6a777fb79960, type: 2}
  - m_RefCount: 1
    m_Data: {fileID: 11400000, guid: 46dab47afa6cf8a42828d97afc8ec136, type: 2}
  - m_RefCount: 1
    m_Data: {fileID: 11400000, guid: 99fe68b58f4a83b4ca39b674efdea6b4, type: 2}
  - m_RefCount: 1
    m_Data: {fileID: 11400000, guid: 84581079dc637174fab38513f8e4d86a, type: 2}
  - m_RefCount: 1
    m_Data: {fileID: 11400000, guid: 1d981693ed4765043bb1d8e2208ddef2, type: 2}
  - m_RefCount: 1
    m_Data: {fileID: 11400000, guid: 06617516359d60744a469423110df01e, type: 2}
  - m_RefCount: 1
    m_Data: {fileID: 11400000, guid: 0058110e09d47124180e16d3b0ffa43c, type: 2}
  - m_RefCount: 1
    m_Data: {fileID: 11400000, guid: 5679e8608bd9fa54e827394594e8042d, type: 2}
  - m_RefCount: 1
    m_Data: {fileID: 11400000, guid: 83f3460712a2232429569f69cc5ca434, type: 2}
  - m_RefCount: 1
    m_Data: {fileID: 11400000, guid: 26aa48928ad199e43a83f854cc0fcf34, type: 2}
  - m_RefCount: 1
    m_Data: {fileID: 11400000, guid: dfaa471b5a6ef7d40a31eddb7d62a282, type: 2}
  - m_RefCount: 1
    m_Data: {fileID: 11400000, guid: 5bb354e083bfc534a8a82ba567d5d0b1, type: 2}
  - m_RefCount: 1
    m_Data: {fileID: 11400000, guid: bc52c68c8a678614fa9026718bb1f623, type: 2}
  - m_RefCount: 1
    m_Data: {fileID: 11400000, guid: 11d9259135a5e9d4086102bd7b2619ea, type: 2}
  - m_RefCount: 1
    m_Data: {fileID: 11400000, guid: ca07282edee50294e9d7530d5df5534f, type: 2}
  - m_RefCount: 1
    m_Data: {fileID: 11400000, guid: 25f39644eb28c0b4cb416eae0c1d9d91, type: 2}
  - m_RefCount: 1
    m_Data: {fileID: 11400000, guid: 5643fda388a8f23488432b547224307e, type: 2}
  - m_RefCount: 1
    m_Data: {fileID: 11400000, guid: 1f79e92e6ffe6b54e9337917ec425cc8, type: 2}
  - m_RefCount: 1
    m_Data: {fileID: 11400000, guid: d0e459c0a585ac64f9988fb1acd69687, type: 2}
  - m_RefCount: 1
    m_Data: {fileID: 11400000, guid: 958c325322fbde845a0a72208e87f5be, type: 2}
  - m_RefCount: 1
    m_Data: {fileID: 11400000, guid: 190f237fd3331934b95e14cfa0d2b6e9, type: 2}
  - m_RefCount: 1
    m_Data: {fileID: 11400000, guid: bd49250a67dd7a04d92b9234d1d65970, type: 2}
  - m_RefCount: 1
    m_Data: {fileID: 11400000, guid: b9c1ec38f1b1bba40a3decb8962d3eac, type: 2}
  - m_RefCount: 1
    m_Data: {fileID: 11400000, guid: 94b85f0dfefa67c48ba9d10150c5be5b, type: 2}
  - m_RefCount: 1
    m_Data: {fileID: 11400000, guid: 251b53e46c72b2642b6b0dde6f86ecdd, type: 2}
  - m_RefCount: 1
    m_Data: {fileID: 11400000, guid: 28c7d34f74439f043b467db802c45d51, type: 2}
  - m_RefCount: 1
    m_Data: {fileID: 11400000, guid: b1a11f8488801da49aa95fd208fdba67, type: 2}
  - m_RefCount: 1
    m_Data: {fileID: 11400000, guid: f401df31bd1f40d479735c7ee80041ac, type: 2}
  - m_RefCount: 1
    m_Data: {fileID: 11400000, guid: 58f9ec54a95c5b44c9fc3978d46035bc, type: 2}
  - m_RefCount: 1
    m_Data: {fileID: 11400000, guid: b488dd275e8772e4db2c61cc0a86696a, type: 2}
  - m_RefCount: 1
    m_Data: {fileID: 11400000, guid: c1d1730dc47c563489ad6669d78b4e6d, type: 2}
  - m_RefCount: 1
    m_Data: {fileID: 11400000, guid: b677bdffb407b694ab9baf8bb1c73dc2, type: 2}
  - m_RefCount: 1
    m_Data: {fileID: 11400000, guid: 365c8c380d4c70b4ca19fa4efaad4759, type: 2}
  - m_RefCount: 1
    m_Data: {fileID: 11400000, guid: 3d1b5b0c8d30da14e96be60931da4330, type: 2}
  - m_RefCount: 1
    m_Data: {fileID: 11400000, guid: 2730050e3ae9d93428411f091872c5d8, type: 2}
  - m_RefCount: 1
    m_Data: {fileID: 11400000, guid: e4aa6be86c23bc34ea83935dbdd768c8, type: 2}
  - m_RefCount: 1
    m_Data: {fileID: 11400000, guid: bbbc05ca5e8bfd84d8c45c01cd2775b5, type: 2}
  - m_RefCount: 1
    m_Data: {fileID: 11400000, guid: 3b826c976d56dee43b887055543e237a, type: 2}
  - m_RefCount: 1
    m_Data: {fileID: 11400000, guid: 0c1ffeb3d79507144b40ed42ca8e0755, type: 2}
  - m_RefCount: 1
    m_Data: {fileID: 11400000, guid: 79948ab6f22b08941ab26c76326d5175, type: 2}
  - m_RefCount: 1
    m_Data: {fileID: 11400000, guid: 054aaaaf946c51e4c9a595fb9fa70964, type: 2}
  - m_RefCount: 1
    m_Data: {fileID: 11400000, guid: 88ccdcd5832c41c4eb259d03743fbe8d, type: 2}
  - m_RefCount: 1
    m_Data: {fileID: 11400000, guid: 54b28de7029b24541b38178b4e75dcf6, type: 2}
  - m_RefCount: 1
    m_Data: {fileID: 11400000, guid: 27370f3a7300c844e8022180ba230dad, type: 2}
  - m_RefCount: 1
    m_Data: {fileID: 11400000, guid: 91d40be6afc09284c8af8ced33808a3e, type: 2}
  - m_RefCount: 1
    m_Data: {fileID: 11400000, guid: af652429df447564cb8bfee714101275, type: 2}
  - m_RefCount: 1
    m_Data: {fileID: 11400000, guid: 867d0152ac3fc094c8d09cb53d73ae53, type: 2}
  - m_RefCount: 1
    m_Data: {fileID: 11400000, guid: 66a0dfcc8a3a87e4ea0ec3531c62b364, type: 2}
  - m_RefCount: 1
    m_Data: {fileID: 11400000, guid: 0c4c40fbeb655504487714df7adba395, type: 2}
  - m_RefCount: 1
    m_Data: {fileID: 11400000, guid: 8794cfefdcb7afa43afe8f40f4378643, type: 2}
  - m_RefCount: 1
    m_Data: {fileID: 11400000, guid: e35017de330a6cf46a6f5fcfe676063b, type: 2}
  - m_RefCount: 1
    m_Data: {fileID: 11400000, guid: f7f4adaaa7f33cc4ebf0b852285cb833, type: 2}
  - m_RefCount: 1
    m_Data: {fileID: 11400000, guid: 7cd22fa3137057543ac6e75df84c48a7, type: 2}
  - m_RefCount: 1
    m_Data: {fileID: 11400000, guid: 93cb6eb80c160bf47b1933e1cacc659d, type: 2}
  - m_RefCount: 1
    m_Data: {fileID: 11400000, guid: 4c8c36f955af3ce41b520d60733471d5, type: 2}
  - m_RefCount: 1
    m_Data: {fileID: 11400000, guid: a2712205d69b48b4185ef9eb02f36f44, type: 2}
  - m_RefCount: 1
    m_Data: {fileID: 11400000, guid: 856a852414b0c20408dc04a3b2e56614, type: 2}
  - m_RefCount: 1
    m_Data: {fileID: 11400000, guid: 549dc1d1d3a5f5b49b0aadf36b878b0f, type: 2}
  - m_RefCount: 1
    m_Data: {fileID: 11400000, guid: fe28e7c33c7842140a099e13c8cd6037, type: 2}
  - m_RefCount: 1
    m_Data: {fileID: 11400000, guid: f4cdf59a5ea2baf4bab323be90561384, type: 2}
  - m_RefCount: 1
    m_Data: {fileID: 11400000, guid: 23080923b1f44374584f54f9cdaba2ef, type: 2}
  - m_RefCount: 1
    m_Data: {fileID: 11400000, guid: f81ba7baf9d055e47b5937a8a662828f, type: 2}
  - m_RefCount: 1
    m_Data: {fileID: 11400000, guid: 043ee88bdfee5ee4c90511e453a5b8e7, type: 2}
  - m_RefCount: 1
    m_Data: {fileID: 11400000, guid: 6e9b4530f3ac81046ab385b51962e734, type: 2}
  - m_RefCount: 1
    m_Data: {fileID: 11400000, guid: 6e319cdb01bd31240a12e9f3c1feb4ed, type: 2}
  - m_RefCount: 1
    m_Data: {fileID: 11400000, guid: eeb8423984d457542b483a20dafeb49f, type: 2}
  - m_RefCount: 1
    m_Data: {fileID: 11400000, guid: e3a5d8ba619d0e0499735138e664de6f, type: 2}
  - m_RefCount: 1
    m_Data: {fileID: 11400000, guid: e2fd502ac18cde843b54b49a9e85d20a, type: 2}
  - m_RefCount: 1
    m_Data: {fileID: 11400000, guid: 6cfbf45ee7303a5419f0e2c5446e9c99, type: 2}
  - m_RefCount: 1
    m_Data: {fileID: 11400000, guid: 2b1fe4ddefbdd1442ad6057b8c5a2848, type: 2}
  - m_RefCount: 1
    m_Data: {fileID: 11400000, guid: fb3b0cc94917cd24caebb50901067335, type: 2}
  - m_RefCount: 1
    m_Data: {fileID: 11400000, guid: d7ec71cac7fcda94caa3389ce3bb2a8f, type: 2}
  - m_RefCount: 1
    m_Data: {fileID: 11400000, guid: 79c5fa8e2a64df54892c83700452d3a2, type: 2}
  - m_RefCount: 1
    m_Data: {fileID: 11400000, guid: 5e94b5cba4529d04f9cc1e3141199d6d, type: 2}
  - m_RefCount: 1
    m_Data: {fileID: 11400000, guid: c4ca895e82dbb6f4da6530fbce2d045f, type: 2}
  - m_RefCount: 1
    m_Data: {fileID: 11400000, guid: 565de4a49ee29934799fe350cd9a22f4, type: 2}
  - m_RefCount: 1
    m_Data: {fileID: 11400000, guid: f388b2764809b6f4eada4386f764dab6, type: 2}
  m_TileSpriteArray:
  - m_RefCount: 1
    m_Data: {fileID: 5492624107108149433, guid: 9520a63c82a7ac14c970d65eb55e17d4,
      type: 3}
  - m_RefCount: 1
    m_Data: {fileID: 4528862375626348148, guid: 9520a63c82a7ac14c970d65eb55e17d4,
      type: 3}
  - m_RefCount: 1
    m_Data: {fileID: 21300030, guid: 761a58c896453db4149ee1981483a7a7, type: 3}
  - m_RefCount: 1
    m_Data: {fileID: 1583796851743618850, guid: d84ad90768867bb49a010ae45efd3566,
      type: 3}
  - m_RefCount: 1
    m_Data: {fileID: 3193120944024713328, guid: d84ad90768867bb49a010ae45efd3566,
      type: 3}
  - m_RefCount: 1
    m_Data: {fileID: -7066852294753162678, guid: d84ad90768867bb49a010ae45efd3566,
      type: 3}
  - m_RefCount: 1
    m_Data: {fileID: 21300030, guid: e160d53dbacbe902caecd3c5bb7db158, type: 3}
  - m_RefCount: 1
    m_Data: {fileID: 21300000, guid: 91812beb4e1ec44de9ea582278557f21, type: 3}
  - m_RefCount: 1
    m_Data: {fileID: 21300000, guid: 892b788165ff9441591b26c9ac865187, type: 3}
  - m_RefCount: 1
    m_Data: {fileID: 21300000, guid: 7781706b908d244c4abf1bf2fe74ce03, type: 3}
  - m_RefCount: 1
    m_Data: {fileID: 21300000, guid: 51cb2138e31194c19b6838948e281fae, type: 3}
  - m_RefCount: 1
    m_Data: {fileID: 21300106, guid: c896ec8f9ab9e458284e703b0e96c024, type: 3}
  - m_RefCount: 1
    m_Data: {fileID: 21300000, guid: f83c201346bd04c9195d099e281283e6, type: 3}
  - m_RefCount: 1
    m_Data: {fileID: 21300000, guid: 162437533948f458c8c6fceb33dde7c1, type: 3}
  - m_RefCount: 1
    m_Data: {fileID: 21300128, guid: c896ec8f9ab9e458284e703b0e96c024, type: 3}
  - m_RefCount: 1
    m_Data: {fileID: 1630309498472388024, guid: d84ad90768867bb49a010ae45efd3566,
      type: 3}
  - m_RefCount: 1
    m_Data: {fileID: 4583678987639156658, guid: d84ad90768867bb49a010ae45efd3566,
      type: 3}
  - m_RefCount: 1
    m_Data: {fileID: 21300116, guid: c896ec8f9ab9e458284e703b0e96c024, type: 3}
  - m_RefCount: 1
    m_Data: {fileID: 21300190, guid: c896ec8f9ab9e458284e703b0e96c024, type: 3}
  - m_RefCount: 1
    m_Data: {fileID: 21300156, guid: c896ec8f9ab9e458284e703b0e96c024, type: 3}
  - m_RefCount: 1
    m_Data: {fileID: 21300004, guid: 53835a543eadc4ff8b2955079199b882, type: 3}
  - m_RefCount: 1
    m_Data: {fileID: 21300188, guid: c896ec8f9ab9e458284e703b0e96c024, type: 3}
  - m_RefCount: 1
    m_Data: {fileID: 21300158, guid: c896ec8f9ab9e458284e703b0e96c024, type: 3}
  - m_RefCount: 1
    m_Data: {fileID: 21300100, guid: c896ec8f9ab9e458284e703b0e96c024, type: 3}
  - m_RefCount: 1
    m_Data: {fileID: 2944724365027044775, guid: d84ad90768867bb49a010ae45efd3566,
      type: 3}
  - m_RefCount: 1
    m_Data: {fileID: 6762081088129619756, guid: d84ad90768867bb49a010ae45efd3566,
      type: 3}
  - m_RefCount: 1
    m_Data: {fileID: 21300022, guid: 53835a543eadc4ff8b2955079199b882, type: 3}
  - m_RefCount: 1
    m_Data: {fileID: 21300114, guid: c896ec8f9ab9e458284e703b0e96c024, type: 3}
  - m_RefCount: 1
    m_Data: {fileID: 21300000, guid: 264c6dd79bb6bf7418a3183d1b0384fe, type: 3}
  - m_RefCount: 1
    m_Data: {fileID: 21300182, guid: c896ec8f9ab9e458284e703b0e96c024, type: 3}
  - m_RefCount: 1
    m_Data: {fileID: 6701596232856348616, guid: 9520a63c82a7ac14c970d65eb55e17d4,
      type: 3}
  - m_RefCount: 2
    m_Data: {fileID: -7807349717804731061, guid: 9520a63c82a7ac14c970d65eb55e17d4,
      type: 3}
  - m_RefCount: 1
    m_Data: {fileID: -4504259318959754742, guid: 9520a63c82a7ac14c970d65eb55e17d4,
      type: 3}
  - m_RefCount: 1
    m_Data: {fileID: 655318090571916590, guid: 9520a63c82a7ac14c970d65eb55e17d4, type: 3}
  - m_RefCount: 1
    m_Data: {fileID: -1896622656583753381, guid: 9520a63c82a7ac14c970d65eb55e17d4,
      type: 3}
  - m_RefCount: 1
    m_Data: {fileID: 3427542535081822314, guid: 9520a63c82a7ac14c970d65eb55e17d4,
      type: 3}
  - m_RefCount: 1
    m_Data: {fileID: 2002704691914579922, guid: 9520a63c82a7ac14c970d65eb55e17d4,
      type: 3}
  - m_RefCount: 1
    m_Data: {fileID: -5367306438509112281, guid: 9520a63c82a7ac14c970d65eb55e17d4,
      type: 3}
  - m_RefCount: 1
    m_Data: {fileID: 8831623839881073037, guid: 9520a63c82a7ac14c970d65eb55e17d4,
      type: 3}
  - m_RefCount: 1
    m_Data: {fileID: 4045191370448634662, guid: 9520a63c82a7ac14c970d65eb55e17d4,
      type: 3}
  - m_RefCount: 1
    m_Data: {fileID: 1920685130768958397, guid: 9520a63c82a7ac14c970d65eb55e17d4,
      type: 3}
  - m_RefCount: 1
    m_Data: {fileID: 6688047561063904029, guid: 9520a63c82a7ac14c970d65eb55e17d4,
      type: 3}
  - m_RefCount: 1
    m_Data: {fileID: -5618442919765108576, guid: 9520a63c82a7ac14c970d65eb55e17d4,
      type: 3}
  - m_RefCount: 1
    m_Data: {fileID: 7459123351098612986, guid: 9520a63c82a7ac14c970d65eb55e17d4,
      type: 3}
  - m_RefCount: 1
    m_Data: {fileID: 1462223915388217366, guid: 9520a63c82a7ac14c970d65eb55e17d4,
      type: 3}
  - m_RefCount: 1
    m_Data: {fileID: 993144515295541821, guid: 9520a63c82a7ac14c970d65eb55e17d4, type: 3}
  - m_RefCount: 1
    m_Data: {fileID: 4639286254990845532, guid: 9520a63c82a7ac14c970d65eb55e17d4,
      type: 3}
  - m_RefCount: 1
    m_Data: {fileID: -7938339475539159015, guid: 9520a63c82a7ac14c970d65eb55e17d4,
      type: 3}
  - m_RefCount: 1
    m_Data: {fileID: -3644636683593586446, guid: 9520a63c82a7ac14c970d65eb55e17d4,
      type: 3}
  - m_RefCount: 1
    m_Data: {fileID: 4499955459012620443, guid: 9520a63c82a7ac14c970d65eb55e17d4,
      type: 3}
  - m_RefCount: 1
    m_Data: {fileID: 3998368183328230658, guid: 9520a63c82a7ac14c970d65eb55e17d4,
      type: 3}
  - m_RefCount: 1
    m_Data: {fileID: 8671833734509924384, guid: 9520a63c82a7ac14c970d65eb55e17d4,
      type: 3}
  - m_RefCount: 1
    m_Data: {fileID: 726131159731507522, guid: 9520a63c82a7ac14c970d65eb55e17d4, type: 3}
  - m_RefCount: 1
    m_Data: {fileID: 6566464956482794278, guid: 9520a63c82a7ac14c970d65eb55e17d4,
      type: 3}
  - m_RefCount: 1
    m_Data: {fileID: 3677526863171788145, guid: 9520a63c82a7ac14c970d65eb55e17d4,
      type: 3}
  - m_RefCount: 1
    m_Data: {fileID: 8295076298142243784, guid: 9520a63c82a7ac14c970d65eb55e17d4,
      type: 3}
  - m_RefCount: 1
    m_Data: {fileID: -5056479878061007538, guid: 9520a63c82a7ac14c970d65eb55e17d4,
      type: 3}
  - m_RefCount: 1
    m_Data: {fileID: -7861142195883290844, guid: 9520a63c82a7ac14c970d65eb55e17d4,
      type: 3}
  - m_RefCount: 1
    m_Data: {fileID: -8187927032686365991, guid: 9520a63c82a7ac14c970d65eb55e17d4,
      type: 3}
  - m_RefCount: 1
    m_Data: {fileID: -3627827415804747171, guid: 9520a63c82a7ac14c970d65eb55e17d4,
      type: 3}
  - m_RefCount: 1
    m_Data: {fileID: 5353428917071445041, guid: 9520a63c82a7ac14c970d65eb55e17d4,
      type: 3}
  - m_RefCount: 1
    m_Data: {fileID: 8830113897718072864, guid: 9520a63c82a7ac14c970d65eb55e17d4,
      type: 3}
  - m_RefCount: 1
    m_Data: {fileID: -4869654782081947256, guid: 9520a63c82a7ac14c970d65eb55e17d4,
      type: 3}
  - m_RefCount: 1
    m_Data: {fileID: 5077874444462886935, guid: 9520a63c82a7ac14c970d65eb55e17d4,
      type: 3}
  - m_RefCount: 1
    m_Data: {fileID: 2435531449071627798, guid: 9520a63c82a7ac14c970d65eb55e17d4,
      type: 3}
  - m_RefCount: 1
    m_Data: {fileID: 8244607557974196739, guid: 9520a63c82a7ac14c970d65eb55e17d4,
      type: 3}
  - m_RefCount: 1
    m_Data: {fileID: -587944791360206688, guid: 9520a63c82a7ac14c970d65eb55e17d4,
      type: 3}
  - m_RefCount: 1
    m_Data: {fileID: 8552874746816952527, guid: 9520a63c82a7ac14c970d65eb55e17d4,
      type: 3}
  - m_RefCount: 1
    m_Data: {fileID: -1570318842550961619, guid: 9520a63c82a7ac14c970d65eb55e17d4,
      type: 3}
  - m_RefCount: 1
    m_Data: {fileID: -7726890135888849403, guid: 9520a63c82a7ac14c970d65eb55e17d4,
      type: 3}
  - m_RefCount: 1
    m_Data: {fileID: 4817850780941157411, guid: 9520a63c82a7ac14c970d65eb55e17d4,
      type: 3}
  - m_RefCount: 1
    m_Data: {fileID: 777588541994648990, guid: 9520a63c82a7ac14c970d65eb55e17d4, type: 3}
  - m_RefCount: 1
    m_Data: {fileID: 2509797357955267641, guid: 9520a63c82a7ac14c970d65eb55e17d4,
      type: 3}
  - m_RefCount: 1
    m_Data: {fileID: 3270909674192243740, guid: 9520a63c82a7ac14c970d65eb55e17d4,
      type: 3}
  - m_RefCount: 1
    m_Data: {fileID: 7065601094255804002, guid: 9520a63c82a7ac14c970d65eb55e17d4,
      type: 3}
  - m_RefCount: 1
    m_Data: {fileID: 6269497240821525637, guid: 9520a63c82a7ac14c970d65eb55e17d4,
      type: 3}
  - m_RefCount: 1
    m_Data: {fileID: 3942814488019382295, guid: 9520a63c82a7ac14c970d65eb55e17d4,
      type: 3}
  - m_RefCount: 1
    m_Data: {fileID: 3688089804236955514, guid: 9520a63c82a7ac14c970d65eb55e17d4,
      type: 3}
  - m_RefCount: 1
    m_Data: {fileID: 3981272337535522602, guid: 9520a63c82a7ac14c970d65eb55e17d4,
      type: 3}
  - m_RefCount: 1
    m_Data: {fileID: 5011150786968076054, guid: 9520a63c82a7ac14c970d65eb55e17d4,
      type: 3}
  - m_RefCount: 1
    m_Data: {fileID: -1040482738277637886, guid: 9520a63c82a7ac14c970d65eb55e17d4,
      type: 3}
  - m_RefCount: 1
    m_Data: {fileID: 4586622926687272111, guid: 9520a63c82a7ac14c970d65eb55e17d4,
      type: 3}
  - m_RefCount: 1
    m_Data: {fileID: 5485980688394793375, guid: 9520a63c82a7ac14c970d65eb55e17d4,
      type: 3}
  - m_RefCount: 1
    m_Data: {fileID: -6978665475462837505, guid: 9520a63c82a7ac14c970d65eb55e17d4,
      type: 3}
  - m_RefCount: 1
    m_Data: {fileID: -5954748358323468280, guid: 9520a63c82a7ac14c970d65eb55e17d4,
      type: 3}
  - m_RefCount: 1
    m_Data: {fileID: -6081102776238920889, guid: 9520a63c82a7ac14c970d65eb55e17d4,
      type: 3}
  - m_RefCount: 1
    m_Data: {fileID: 2914749917803623724, guid: 9520a63c82a7ac14c970d65eb55e17d4,
      type: 3}
  - m_RefCount: 1
    m_Data: {fileID: -2183159299143899821, guid: 9520a63c82a7ac14c970d65eb55e17d4,
      type: 3}
  - m_RefCount: 1
    m_Data: {fileID: -195596701372336728, guid: 9520a63c82a7ac14c970d65eb55e17d4,
      type: 3}
  - m_RefCount: 1
    m_Data: {fileID: 9068577417098480185, guid: 9520a63c82a7ac14c970d65eb55e17d4,
      type: 3}
  - m_RefCount: 1
    m_Data: {fileID: -8716964029276613623, guid: 9520a63c82a7ac14c970d65eb55e17d4,
      type: 3}
  - m_RefCount: 1
    m_Data: {fileID: -2330123283641139947, guid: 9520a63c82a7ac14c970d65eb55e17d4,
      type: 3}
  - m_RefCount: 1
    m_Data: {fileID: -4461918346900455392, guid: 9520a63c82a7ac14c970d65eb55e17d4,
      type: 3}
  - m_RefCount: 1
    m_Data: {fileID: 8309549554455142821, guid: 9520a63c82a7ac14c970d65eb55e17d4,
      type: 3}
  - m_RefCount: 1
    m_Data: {fileID: -1594890439368910810, guid: 9520a63c82a7ac14c970d65eb55e17d4,
      type: 3}
  - m_RefCount: 1
    m_Data: {fileID: -6126173499378755238, guid: 9520a63c82a7ac14c970d65eb55e17d4,
      type: 3}
  - m_RefCount: 1
    m_Data: {fileID: 1101414281367934446, guid: 9520a63c82a7ac14c970d65eb55e17d4,
      type: 3}
  - m_RefCount: 1
    m_Data: {fileID: -7488996593827742287, guid: 9520a63c82a7ac14c970d65eb55e17d4,
      type: 3}
  - m_RefCount: 1
    m_Data: {fileID: -2282532501714305910, guid: 9520a63c82a7ac14c970d65eb55e17d4,
      type: 3}
  - m_RefCount: 1
    m_Data: {fileID: 4270488913934522648, guid: 9520a63c82a7ac14c970d65eb55e17d4,
      type: 3}
  - m_RefCount: 1
    m_Data: {fileID: 2684820959090397164, guid: 9520a63c82a7ac14c970d65eb55e17d4,
      type: 3}
  - m_RefCount: 1
    m_Data: {fileID: 251997896664663638, guid: 9520a63c82a7ac14c970d65eb55e17d4, type: 3}
  - m_RefCount: 1
    m_Data: {fileID: -8394576293281665928, guid: 9520a63c82a7ac14c970d65eb55e17d4,
      type: 3}
  - m_RefCount: 1
    m_Data: {fileID: -5471549460204999414, guid: 9520a63c82a7ac14c970d65eb55e17d4,
      type: 3}
  - m_RefCount: 1
    m_Data: {fileID: -5330090219327602194, guid: 9520a63c82a7ac14c970d65eb55e17d4,
      type: 3}
  - m_RefCount: 1
    m_Data: {fileID: -355497406866401785, guid: 9520a63c82a7ac14c970d65eb55e17d4,
      type: 3}
  - m_RefCount: 1
    m_Data: {fileID: -7715770651445624512, guid: 9520a63c82a7ac14c970d65eb55e17d4,
      type: 3}
  - m_RefCount: 1
    m_Data: {fileID: -6169826290497409602, guid: 9520a63c82a7ac14c970d65eb55e17d4,
      type: 3}
  - m_RefCount: 1
    m_Data: {fileID: -8698556658401069862, guid: 9520a63c82a7ac14c970d65eb55e17d4,
      type: 3}
  - m_RefCount: 1
    m_Data: {fileID: 2852400369284313154, guid: 9520a63c82a7ac14c970d65eb55e17d4,
      type: 3}
  - m_RefCount: 1
    m_Data: {fileID: 46703560246409262, guid: 9520a63c82a7ac14c970d65eb55e17d4, type: 3}
  - m_RefCount: 1
    m_Data: {fileID: -2209735120091841258, guid: 9520a63c82a7ac14c970d65eb55e17d4,
      type: 3}
  - m_RefCount: 1
    m_Data: {fileID: 8974456127083379946, guid: 9520a63c82a7ac14c970d65eb55e17d4,
      type: 3}
  - m_RefCount: 1
    m_Data: {fileID: 6958780449365300159, guid: 9520a63c82a7ac14c970d65eb55e17d4,
      type: 3}
  - m_RefCount: 1
    m_Data: {fileID: -5057553365151419028, guid: 9520a63c82a7ac14c970d65eb55e17d4,
      type: 3}
  - m_RefCount: 1
    m_Data: {fileID: -1680595646534267988, guid: 9520a63c82a7ac14c970d65eb55e17d4,
      type: 3}
  - m_RefCount: 1
    m_Data: {fileID: -4665499104933611033, guid: 9520a63c82a7ac14c970d65eb55e17d4,
      type: 3}
  - m_RefCount: 1
    m_Data: {fileID: 3438429086490578181, guid: 9520a63c82a7ac14c970d65eb55e17d4,
      type: 3}
  - m_RefCount: 1
    m_Data: {fileID: -9175563048090727721, guid: 9520a63c82a7ac14c970d65eb55e17d4,
      type: 3}
  - m_RefCount: 1
    m_Data: {fileID: 3659641069988828794, guid: 9520a63c82a7ac14c970d65eb55e17d4,
      type: 3}
  - m_RefCount: 1
    m_Data: {fileID: -700786232288327012, guid: 9520a63c82a7ac14c970d65eb55e17d4,
      type: 3}
  - m_RefCount: 1
    m_Data: {fileID: -4314067611754583436, guid: 9520a63c82a7ac14c970d65eb55e17d4,
      type: 3}
  - m_RefCount: 1
    m_Data: {fileID: 5777419964626556085, guid: 9520a63c82a7ac14c970d65eb55e17d4,
      type: 3}
  - m_RefCount: 1
    m_Data: {fileID: -5092620435359321391, guid: 9520a63c82a7ac14c970d65eb55e17d4,
      type: 3}
  - m_RefCount: 1
    m_Data: {fileID: 2680483301603529110, guid: 9520a63c82a7ac14c970d65eb55e17d4,
      type: 3}
  - m_RefCount: 1
    m_Data: {fileID: 4013784748234369935, guid: 9520a63c82a7ac14c970d65eb55e17d4,
      type: 3}
  - m_RefCount: 1
    m_Data: {fileID: 1692049615416211337, guid: 9520a63c82a7ac14c970d65eb55e17d4,
      type: 3}
  - m_RefCount: 1
    m_Data: {fileID: -1223912192416852546, guid: 9520a63c82a7ac14c970d65eb55e17d4,
      type: 3}
  - m_RefCount: 1
    m_Data: {fileID: 4384197750850178293, guid: 9520a63c82a7ac14c970d65eb55e17d4,
      type: 3}
  - m_RefCount: 1
    m_Data: {fileID: 1987363319935317128, guid: 9520a63c82a7ac14c970d65eb55e17d4,
      type: 3}
  - m_RefCount: 1
    m_Data: {fileID: 6010674815644814142, guid: 9520a63c82a7ac14c970d65eb55e17d4,
      type: 3}
  - m_RefCount: 1
    m_Data: {fileID: 4356352789781795644, guid: 9520a63c82a7ac14c970d65eb55e17d4,
      type: 3}
  - m_RefCount: 1
    m_Data: {fileID: 2838922059054486372, guid: 9520a63c82a7ac14c970d65eb55e17d4,
      type: 3}
  - m_RefCount: 1
    m_Data: {fileID: -8770349937169815853, guid: 9520a63c82a7ac14c970d65eb55e17d4,
      type: 3}
  - m_RefCount: 1
    m_Data: {fileID: -1720032028461479894, guid: 9520a63c82a7ac14c970d65eb55e17d4,
      type: 3}
  - m_RefCount: 1
    m_Data: {fileID: 3395294721472960806, guid: 9520a63c82a7ac14c970d65eb55e17d4,
      type: 3}
  - m_RefCount: 1
    m_Data: {fileID: 7273019002148869592, guid: 9520a63c82a7ac14c970d65eb55e17d4,
      type: 3}
  - m_RefCount: 1
    m_Data: {fileID: -6685647751255999737, guid: 9520a63c82a7ac14c970d65eb55e17d4,
      type: 3}
  - m_RefCount: 1
    m_Data: {fileID: -2793044364986147301, guid: 9520a63c82a7ac14c970d65eb55e17d4,
      type: 3}
  - m_RefCount: 1
    m_Data: {fileID: 1822576030122478932, guid: 9520a63c82a7ac14c970d65eb55e17d4,
      type: 3}
  - m_RefCount: 1
    m_Data: {fileID: 4757270182345829634, guid: 9520a63c82a7ac14c970d65eb55e17d4,
      type: 3}
  - m_RefCount: 1
    m_Data: {fileID: 2845011556784730472, guid: 9520a63c82a7ac14c970d65eb55e17d4,
      type: 3}
  - m_RefCount: 1
    m_Data: {fileID: 4799825647551866752, guid: 9520a63c82a7ac14c970d65eb55e17d4,
      type: 3}
  - m_RefCount: 1
    m_Data: {fileID: -9150939352052534758, guid: 9520a63c82a7ac14c970d65eb55e17d4,
      type: 3}
  m_TileMatrixArray:
  - m_RefCount: 145
    m_Data:
      e00: 1
      e01: 0
      e02: 0
      e03: 0
      e10: 0
      e11: 1
      e12: 0
      e13: 0
      e20: 0
      e21: 0
      e22: 1
      e23: 0
      e30: 0
      e31: 0
      e32: 0
      e33: 1
  - m_RefCount: 0
    m_Data:
      e00: -1
      e01: 0
      e02: 0
      e03: 0
      e10: -0
      e11: 1
      e12: 0
      e13: 0
      e20: -0
      e21: 0
      e22: 1
      e23: 0
      e30: 0
      e31: 0
      e32: 0
      e33: 1
  m_TileColorArray:
  - m_RefCount: 145
    m_Data: {r: 1, g: 1, b: 1, a: 1}
  - m_RefCount: 0
    m_Data: {r: 2.7412423e-26, g: 2.7412423e-26, b: 2.7412423e-26, a: 2.7412423e-26}
  - m_RefCount: 0
    m_Data: {r: -1.6764893e-37, g: -1.6764893e-37, b: -1.6764893e-37, a: -1.6764893e-37}
  m_TileObjectToInstantiateArray: []
  m_AnimationFrameRate: 1
  m_Color: {r: 1, g: 1, b: 1, a: 1}
  m_Origin: {x: -3, y: -15, z: 0}
  m_Size: {x: 27, y: 27, z: 1}
  m_TileAnchor: {x: 0.5, y: 0.5, z: 0}
  m_TileOrientation: 0
  m_TileOrientationMatrix:
    e00: 1
    e01: 0
    e02: 0
    e03: 0
    e10: 0
    e11: 1
    e12: 0
    e13: 0
    e20: 0
    e21: 0
    e22: 1
    e23: 0
    e30: 0
    e31: 0
    e32: 0
    e33: 1
--- !u!483693784 &3664157344600022270
TilemapRenderer:
  m_ObjectHideFlags: 0
  m_CorrespondingSourceObject: {fileID: 0}
  m_PrefabInstance: {fileID: 0}
  m_PrefabAsset: {fileID: 0}
  m_GameObject: {fileID: 1201088610546240}
  m_Enabled: 1
  m_CastShadows: 0
  m_ReceiveShadows: 0
  m_DynamicOccludee: 0
  m_MotionVectors: 1
  m_LightProbeUsage: 0
  m_ReflectionProbeUsage: 0
  m_RayTracingMode: 0
  m_RayTraceProcedural: 0
  m_RenderingLayerMask: 1
  m_RendererPriority: 0
  m_Materials:
  - {fileID: 10754, guid: 0000000000000000f000000000000000, type: 0}
  m_StaticBatchInfo:
    firstSubMesh: 0
    subMeshCount: 0
  m_StaticBatchRoot: {fileID: 0}
  m_ProbeAnchor: {fileID: 0}
  m_LightProbeVolumeOverride: {fileID: 0}
  m_ScaleInLightmap: 1
  m_ReceiveGI: 1
  m_PreserveUVs: 0
  m_IgnoreNormalsForChartDetection: 0
  m_ImportantGI: 0
  m_StitchLightmapSeams: 0
  m_SelectedEditorRenderState: 0
  m_MinimumChartSize: 4
  m_AutoUVMaxDistance: 0.5
  m_AutoUVMaxAngle: 89
  m_LightmapParameters: {fileID: 0}
  m_SortingLayerID: 0
  m_SortingLayer: 0
  m_SortingOrder: 0
  m_ChunkSize: {x: 32, y: 32, z: 32}
  m_ChunkCullingBounds: {x: 0, y: 0, z: 0}
  m_MaxChunkCount: 16
  m_MaxFrameAge: 16
  m_SortOrder: 0
  m_Mode: 0
  m_DetectChunkCullingBounds: 0
  m_MaskInteraction: 0
--- !u!1 &1713824443594038
GameObject:
  m_ObjectHideFlags: 0
  m_CorrespondingSourceObject: {fileID: 0}
  m_PrefabInstance: {fileID: 0}
  m_PrefabAsset: {fileID: 0}
  serializedVersion: 6
  m_Component:
  - component: {fileID: 4498376204177096}
  - component: {fileID: 2569400267910457060}
  m_Layer: 31
  m_Name: RetroPalette
  m_TagString: Untagged
  m_Icon: {fileID: 0}
  m_NavMeshLayer: 0
  m_StaticEditorFlags: 0
  m_IsActive: 1
--- !u!4 &4498376204177096
Transform:
  m_ObjectHideFlags: 0
  m_CorrespondingSourceObject: {fileID: 0}
  m_PrefabInstance: {fileID: 0}
  m_PrefabAsset: {fileID: 0}
  m_GameObject: {fileID: 1713824443594038}
  m_LocalRotation: {x: 0, y: 0, z: 0, w: 1}
  m_LocalPosition: {x: 0, y: 0, z: 0}
  m_LocalScale: {x: 1, y: 1, z: 1}
  m_Children:
  - {fileID: 4099364924053152}
  m_Father: {fileID: 0}
  m_RootOrder: 0
  m_LocalEulerAnglesHint: {x: 0, y: 0, z: 0}
--- !u!156049354 &2569400267910457060
Grid:
  m_ObjectHideFlags: 0
  m_CorrespondingSourceObject: {fileID: 0}
  m_PrefabInstance: {fileID: 0}
  m_PrefabAsset: {fileID: 0}
  m_GameObject: {fileID: 1713824443594038}
  m_Enabled: 1
  m_CellSize: {x: 1, y: 1, z: 0}
  m_CellGap: {x: 0, y: 0, z: 0}
  m_CellLayout: 0
  m_CellSwizzle: 0
--- !u!114 &8569137473230610259
MonoBehaviour:
  m_ObjectHideFlags: 0
  m_CorrespondingSourceObject: {fileID: 0}
  m_PrefabInstance: {fileID: 0}
  m_PrefabAsset: {fileID: 0}
  m_GameObject: {fileID: 0}
  m_Enabled: 1
  m_EditorHideFlags: 1
  m_Script: {fileID: 12395, guid: 0000000000000000e000000000000000, type: 0}
  m_Name: Palette Settings
  m_EditorClassIdentifier: 
  cellSizing: 0
  m_TransparencySortMode: 0
  m_TransparencySortAxis: {x: 0, y: 0, z: 1}
