%YAML 1.1
%TAG !u! tag:unity3d.com,2011:
--- !u!21 &2100000
Material:
  serializedVersion: 6
  m_ObjectHideFlags: 0
  m_CorrespondingSourceObject: {fileID: 0}
  m_PrefabInstance: {fileID: 0}
  m_PrefabAsset: {fileID: 0}
  m_Name: Rocky
  m_Shader: {fileID: 4800000, guid: 84b65c35407eba14e9d6cc11b4ca4957, type: 3}
  m_ShaderKeywords: 
  m_LightmapFlags: 4
  m_EnableInstancingVariants: 0
  m_DoubleSidedGI: 0
  m_CustomRenderQueue: -1
  stringTagMap: {}
  disabledShaderPasses: []
  m_SavedProperties:
    serializedVersion: 3
    m_TexEnvs:
    - _MainTex:
        m_Texture: {fileID: 2800000, guid: bc873cbef86719a44a4ce4c44cca8734, type: 3}
        m_Scale: {x: 1, y: 1}
        m_Offset: {x: 0, y: 0}
    m_Floats:
    - _PositionScale: 4
    - _WaveSizeX: 0.25
    - _WaveSizeY: 0.25
    - _WaveSpeed: 4
    m_Colors:
    - _Color: {r: 1, g: 1, b: 1, a: 1}
  m_BuildTextureStacks: []
